{
  "director": "uk.co.nickthecoder.tickle.NoDirector",
  "background": "#000000",
  "showMouse": true,
  "layout": "default",
  "snapToGrid": {
    "enabled": false,
    "xSpacing": 50,
    "ySpacing": 50,
    "xOffset": 0,
    "yOffset": 0,
    "xCloseness": 10,
    "yCloseness": 10
  },
  "snapToGuides": {
    "enabled": true,
    "closeness": 5,
    "x": [
      
    ],
    "y": [
      
    ]
  },
  "snapToOthers": {
    "enabled": true,
    "xCloseness": 10,
    "yCloseness": 10
  },
  "snapRotation": {
    "enabled": false,
    "step": 15,
    "closeness": 15
  },
  "include": [
    
  ],
  "stages": [
    {
      "name": "extra",
      "actors": [
        {
          "costume": "sledge",
          "x": 120,
          "y": 600,
          "attributes": [
            {
              "name": "delay",
              "value": "60"
            },
            {
              "name": "text",
              "value": "Is it too hard?"
            },
            {
              "name": "duration",
              "value": "4"
            }
          ]
        },
        {
          "costume": "sledge",
          "x": 240,
          "y": 600,
          "attributes": [
            {
              "name": "delay",
              "value": "120"
            },
            {
              "name": "text",
              "value": "Come on, we haven't got\nall day"
            },
            {
              "name": "duration",
              "value": "4"
            }
          ]
        },
        {
          "costume": "sledge",
          "x": 360,
          "y": 600,
          "attributes": [
            {
              "name": "delay",
              "value": "240"
            },
            {
              "name": "text",
              "value": "I don't think you are really trying"
            },
            {
              "name": "duration",
              "value": "4"
            }
          ]
        },
        {
          "costume": "sledge",
          "x": 480,
          "y": 600,
          "attributes": [
            {
              "name": "delay",
              "value": "600"
            },
            {
              "name": "text",
              "value": "Take a break.\nA walk outside may help."
            },
            {
              "name": "duration",
              "value": "4"
            }
          ]
        },
        {
          "costume": "sledge",
          "x": 600,
          "y": 600,
          "attributes": [
            {
              "name": "delay",
              "value": "660"
            },
            {
              "name": "text",
              "value": "How about a game of\nfootball instead?"
            },
            {
              "name": "duration",
              "value": "4"
            }
          ]
        }
      ]
    },
    {
      "name": "glass",
      "actors": [
        {
          "costume": "valuablesCount",
          "x": 1020,
          "y": 780,
          "text": ""
        },
        {
          "costume": "notice",
          "name": "restartNotice",
          "x": 532,
          "y": 919,
          "text": "",
          "attributes": [
            {
              "name": "text",
              "value": ""
            },
            {
              "name": "moveTo",
              "value": "492.0x456.0"
            }
          ]
        },
        {
          "costume": "notice",
          "name": "escapeNotice",
          "x": 513,
          "y": -41,
          "text": "",
          "attributes": [
            {
              "name": "text",
              "value": ""
            },
            {
              "name": "moveTo",
              "value": "505.0x161.0"
            }
          ]
        },
        {
          "costume": "sceneName",
          "x": 356.5,
          "y": 834,
          "text": "Scene Name"
        }
      ]
    }
  ]
}