{
  "director": "PlayDirector",
  "directorAttributes": [
    {
      "name": "cheatInstructions",
      "value": ""
    },
    {
      "name": "sceneTitle",
      "value": "The Hub"
    }
  ],
  "background": "#000000",
  "showMouse": true,
  "layout": "default",
  "snapToGrid": {
    "enabled": false,
    "xSpacing": 50,
    "ySpacing": 50,
    "xOffset": 0,
    "yOffset": 0,
    "xCloseness": 10,
    "yCloseness": 10
  },
  "snapToGuides": {
    "enabled": true,
    "closeness": 5,
    "x": [
      
    ],
    "y": [
      
    ]
  },
  "snapToOthers": {
    "enabled": true,
    "xCloseness": 10,
    "yCloseness": 10
  },
  "snapRotation": {
    "enabled": false,
    "step": 15,
    "closeness": 15
  },
  "include": [
    "hub"
  ],
  "stages": [
    {
      "name": "extra",
      "actors": [
        {
          "costume": "sledge",
          "x": 420,
          "y": 600,
          "attributes": [
            {
              "name": "delay",
              "value": "2"
            },
            {
              "name": "text",
              "value": "Hi, I'm Burton."
            },
            {
              "name": "duration",
              "value": "4"
            }
          ]
        }
      ]
    },
    {
      "name": "glass",
      "actors": [
        {
          "costume": "screenshot",
          "x": 120,
          "y": 720,
          "text": "screenshot",
          "attributes": [
            {
              "name": "delayInTicks",
              "value": "60"
            },
            {
              "name": "filename",
              "value": "screenshot.png"
            },
            {
              "name": "overwrite",
              "value": "false"
            },
            {
              "name": "thumbnailWidth",
              "value": "0"
            }
          ]
        },
        {
          "costume": "screenshot",
          "x": 120,
          "y": 660,
          "text": "thumbnail",
          "attributes": [
            {
              "name": "delayInTicks",
              "value": "60"
            },
            {
              "name": "filename",
              "value": "thumbnail.png"
            },
            {
              "name": "overwrite",
              "value": "false"
            },
            {
              "name": "thumbnailWidth",
              "value": "160"
            }
          ]
        }
      ]
    }
  ]
}