{
  "director": "TestDirector",
  "directorAttributes": [
    {
      "name": "cheatInstructions",
      "value": "RRRRRRRRRRRRRRRRRRRRRRRRRRRRRRRRRRRRRRRRRRRRRRRRRRR"
    },
    {
      "name": "sceneTitle",
      "value": ""
    },
    {
      "name": "nextScene",
      "value": "hubFirst"
    },
    {
      "name": "extraValuables",
      "value": "0"
    }
  ],
  "background": "#000000",
  "showMouse": true,
  "layout": "default",
  "snapToGrid": {
    "enabled": false,
    "xSpacing": 50,
    "ySpacing": 50,
    "xOffset": 0,
    "yOffset": 0,
    "xCloseness": 10,
    "yCloseness": 10
  },
  "snapToGuides": {
    "enabled": true,
    "closeness": 5,
    "x": [
      
    ],
    "y": [
      
    ]
  },
  "snapToOthers": {
    "enabled": true,
    "xCloseness": 10,
    "yCloseness": 10
  },
  "snapRotation": {
    "enabled": true,
    "step": 15,
    "closeness": 15
  },
  "include": [
    
  ],
  "stages": [
    {
      "name": "main",
      "actors": [
        {
          "costume": "wall",
          "x": 60,
          "y": 660
        },
        {
          "costume": "wall",
          "x": 60,
          "y": 600
        },
        {
          "costume": "wall",
          "x": 60,
          "y": 540
        },
        {
          "costume": "wall",
          "x": 60,
          "y": 480
        },
        {
          "costume": "wall",
          "x": 60,
          "y": 420
        },
        {
          "costume": "wall",
          "x": 60,
          "y": 360
        },
        {
          "costume": "wall",
          "x": 120,
          "y": 660
        },
        {
          "costume": "wall",
          "x": 180,
          "y": 660
        },
        {
          "costume": "wallNE",
          "x": 240,
          "y": 660
        },
        {
          "costume": "wall",
          "x": 240,
          "y": 600
        },
        {
          "costume": "wall",
          "x": 180,
          "y": 540
        },
        {
          "costume": "wallSE",
          "x": 300,
          "y": 360
        },
        {
          "costume": "wall",
          "x": 120,
          "y": 540
        },
        {
          "costume": "wall",
          "x": 120,
          "y": 360
        },
        {
          "costume": "wall",
          "x": 180,
          "y": 360
        },
        {
          "costume": "wall",
          "x": 240,
          "y": 360
        },
        {
          "costume": "wall",
          "x": 240,
          "y": 540
        },
        {
          "costume": "wallNE",
          "x": 300,
          "y": 540
        },
        {
          "costume": "wall",
          "x": 300,
          "y": 480
        },
        {
          "costume": "wall",
          "x": 300,
          "y": 420
        },
        {
          "costume": "wall",
          "x": 420,
          "y": 540
        },
        {
          "costume": "wall",
          "x": 420,
          "y": 480
        },
        {
          "costume": "wall",
          "x": 420,
          "y": 420
        },
        {
          "costume": "wall",
          "x": 480,
          "y": 360
        },
        {
          "costume": "wall",
          "x": 540,
          "y": 360
        },
        {
          "costume": "wall",
          "x": 600,
          "y": 360
        },
        {
          "costume": "wall",
          "x": 600,
          "y": 420
        },
        {
          "costume": "wall",
          "x": 600,
          "y": 480
        },
        {
          "costume": "wall",
          "x": 600,
          "y": 540
        },
        {
          "costume": "wallSW",
          "x": 420,
          "y": 360
        },
        {
          "costume": "wall",
          "x": 720,
          "y": 540
        },
        {
          "costume": "wall",
          "x": 720,
          "y": 480
        },
        {
          "costume": "wall",
          "x": 720,
          "y": 420
        },
        {
          "costume": "wall",
          "x": 720,
          "y": 360
        },
        {
          "costume": "wall",
          "x": 780,
          "y": 540
        },
        {
          "costume": "wallNE",
          "x": 840,
          "y": 540
        },
        {
          "costume": "wall",
          "x": 1020,
          "y": 660
        },
        {
          "costume": "wall",
          "x": 1020,
          "y": 600
        },
        {
          "costume": "wall",
          "x": 1020,
          "y": 540
        },
        {
          "costume": "wall",
          "x": 1020,
          "y": 480
        },
        {
          "costume": "wall",
          "x": 1020,
          "y": 420
        },
        {
          "costume": "wall",
          "x": 1080,
          "y": 360
        },
        {
          "costume": "wall",
          "x": 1260,
          "y": 420
        },
        {
          "costume": "wallSE",
          "x": 1140,
          "y": 360
        },
        {
          "costume": "wallSW",
          "x": 1020,
          "y": 360
        },
        {
          "costume": "wall",
          "x": 960,
          "y": 540
        },
        {
          "costume": "wall",
          "x": 1080,
          "y": 540
        },
        {
          "costume": "wall",
          "x": 1260,
          "y": 480
        },
        {
          "costume": "wall",
          "x": 1320,
          "y": 540
        },
        {
          "costume": "wall",
          "x": 1380,
          "y": 540
        },
        {
          "costume": "wall",
          "x": 1440,
          "y": 480
        },
        {
          "costume": "wall",
          "x": 1440,
          "y": 420
        },
        {
          "costume": "wall",
          "x": 1380,
          "y": 360
        },
        {
          "costume": "wall",
          "x": 1320,
          "y": 360
        },
        {
          "costume": "wallSW",
          "x": 1260,
          "y": 360
        },
        {
          "costume": "wallSE",
          "x": 1440,
          "y": 360
        },
        {
          "costume": "wallNW",
          "x": 1260,
          "y": 540
        },
        {
          "costume": "wallNE",
          "x": 1440,
          "y": 540
        },
        {
          "costume": "wall",
          "x": 1560,
          "y": 360
        },
        {
          "costume": "wall",
          "x": 1560,
          "y": 420
        },
        {
          "costume": "wall",
          "x": 1560,
          "y": 480
        },
        {
          "costume": "wall",
          "x": 1560,
          "y": 540
        },
        {
          "costume": "wall",
          "x": 1620,
          "y": 540
        },
        {
          "costume": "wall",
          "x": 1680,
          "y": 540
        },
        {
          "costume": "wall",
          "x": 1740,
          "y": 480
        },
        {
          "costume": "wall",
          "x": 1740,
          "y": 420
        },
        {
          "costume": "wall",
          "x": 1740,
          "y": 360
        },
        {
          "costume": "wallNE",
          "x": 1740,
          "y": 540
        },
        {
          "costume": "wallNW",
          "x": 60,
          "y": 180
        },
        {
          "costume": "wall",
          "x": 120,
          "y": 180
        },
        {
          "costume": "wall",
          "x": 180,
          "y": 180
        },
        {
          "costume": "wall",
          "x": 240,
          "y": 180
        },
        {
          "costume": "wall",
          "x": 300,
          "y": 180
        },
        {
          "costume": "wall",
          "x": 360,
          "y": 180
        },
        {
          "costume": "wall",
          "x": 420,
          "y": 180
        },
        {
          "costume": "wall",
          "x": 480,
          "y": 180
        },
        {
          "costume": "wall",
          "x": 540,
          "y": 180
        },
        {
          "costume": "wall",
          "x": 600,
          "y": 180
        },
        {
          "costume": "wall",
          "x": 660,
          "y": 180
        },
        {
          "costume": "wall",
          "x": 720,
          "y": 180
        },
        {
          "costume": "wall",
          "x": 780,
          "y": 180
        },
        {
          "costume": "wall",
          "x": 840,
          "y": 180
        },
        {
          "costume": "wall",
          "x": 900,
          "y": 180
        },
        {
          "costume": "wall",
          "x": 960,
          "y": 180
        },
        {
          "costume": "wall",
          "x": 1020,
          "y": 180
        },
        {
          "costume": "wall",
          "x": 1080,
          "y": 180
        },
        {
          "costume": "wall",
          "x": 1140,
          "y": 180
        },
        {
          "costume": "wall",
          "x": 1200,
          "y": 180
        },
        {
          "costume": "wall",
          "x": 1260,
          "y": 180
        },
        {
          "costume": "wall",
          "x": 1320,
          "y": 180
        },
        {
          "costume": "wall",
          "x": 1380,
          "y": 180
        },
        {
          "costume": "wall",
          "x": 1440,
          "y": 180
        },
        {
          "costume": "wall",
          "x": 1500,
          "y": 180
        },
        {
          "costume": "wall",
          "x": 1560,
          "y": 180
        },
        {
          "costume": "wall",
          "x": 1620,
          "y": 180
        },
        {
          "costume": "wall",
          "x": 1680,
          "y": 180
        },
        {
          "costume": "wallNE",
          "x": 1740,
          "y": 180
        },
        {
          "costume": "coin",
          "x": 120,
          "y": 240
        },
        {
          "costume": "coin",
          "x": 180,
          "y": 240
        },
        {
          "costume": "coin",
          "x": 240,
          "y": 240
        },
        {
          "costume": "coin",
          "x": 300,
          "y": 240
        },
        {
          "costume": "coin",
          "x": 360,
          "y": 240
        },
        {
          "costume": "coin",
          "x": 420,
          "y": 240
        },
        {
          "costume": "coin",
          "x": 480,
          "y": 240
        },
        {
          "costume": "coin",
          "x": 540,
          "y": 240
        },
        {
          "costume": "coin",
          "x": 600,
          "y": 240
        },
        {
          "costume": "coin",
          "x": 660,
          "y": 240
        },
        {
          "costume": "coin",
          "x": 720,
          "y": 240
        },
        {
          "costume": "coin",
          "x": 780,
          "y": 240
        },
        {
          "costume": "coin",
          "x": 840,
          "y": 240
        },
        {
          "costume": "coin",
          "x": 900,
          "y": 240
        },
        {
          "costume": "coin",
          "x": 960,
          "y": 240
        },
        {
          "costume": "coin",
          "x": 1020,
          "y": 240
        },
        {
          "costume": "coin",
          "x": 1080,
          "y": 240
        },
        {
          "costume": "coin",
          "x": 1140,
          "y": 240
        },
        {
          "costume": "coin",
          "x": 1200,
          "y": 240
        },
        {
          "costume": "coin",
          "x": 1260,
          "y": 240
        },
        {
          "costume": "coin",
          "x": 1320,
          "y": 240
        },
        {
          "costume": "coin",
          "x": 1380,
          "y": 240
        },
        {
          "costume": "coin",
          "x": 1440,
          "y": 240
        },
        {
          "costume": "coin",
          "x": 1500,
          "y": 240
        },
        {
          "costume": "coin",
          "x": 1560,
          "y": 240
        },
        {
          "costume": "coin",
          "x": 1620,
          "y": 240
        },
        {
          "costume": "coin",
          "x": 1680,
          "y": 240
        },
        {
          "costume": "gateCompleted",
          "x": 2340,
          "y": 240,
          "attributes": [
            {
              "name": "scene",
              "value": "hubFirst"
            }
          ]
        },
        {
          "costume": "burton",
          "x": -660,
          "y": 240,
          "attributes": [
            {
              "name": "offsetX",
              "value": "0"
            },
            {
              "name": "offsetY",
              "value": "4"
            }
          ]
        }
      ]
    }
  ]
}