{
  "director": "TestDirector",
  "directorAttributes": [
    {
      "name": "nextScene",
      "value": "tests/bugs/08"
    },
    {
      "name": "cheatInstructions",
      "value": ""
    },
    {
      "name": "extraValuables",
      "value": "0"
    }
  ],
  "background": "#000000",
  "showMouse": true,
  "layout": "default",
  "snapToGrid": {
    "enabled": false,
    "xSpacing": 50,
    "ySpacing": 50,
    "xOffset": 0,
    "yOffset": 0,
    "xCloseness": 10,
    "yCloseness": 10
  },
  "snapToGuides": {
    "enabled": true,
    "closeness": 5,
    "x": [
      
    ],
    "y": [
      
    ]
  },
  "snapToOthers": {
    "enabled": true,
    "xCloseness": 10,
    "yCloseness": 10
  },
  "snapRotation": {
    "enabled": true,
    "step": 15,
    "closeness": 15
  },
  "include": [
    
  ],
  "stages": [
    {
      "name": "main",
      "actors": [
        {
          "costume": "wall",
          "x": 720,
          "y": 420
        },
        {
          "costume": "wall",
          "x": 780,
          "y": 420
        },
        {
          "costume": "wall",
          "x": 600,
          "y": 420
        },
        {
          "costume": "wall",
          "x": 480,
          "y": 420
        },
        {
          "costume": "wall",
          "x": 540,
          "y": 420
        },
        {
          "costume": "autoPlayer",
          "x": 780,
          "y": 540,
          "attributes": [
            {
              "name": "instructions",
              "value": "LLLL"
            },
            {
              "name": "mustFinish",
              "value": "true"
            },
            {
              "name": "shouldDie",
              "value": "false"
            },
            {
              "name": "offsetX",
              "value": "0"
            },
            {
              "name": "offsetY",
              "value": "0"
            }
          ]
        },
        {
          "costume": "wall",
          "x": 420,
          "y": 420
        },
        {
          "costume": "wall",
          "x": 840,
          "y": 420
        },
        {
          "costume": "balloon",
          "x": 480,
          "y": 480
        },
        {
          "costume": "squash_E",
          "x": 540,
          "y": 480
        },
        {
          "costume": "wallSE",
          "x": 480,
          "y": 540
        },
        {
          "costume": "wall",
          "x": 480,
          "y": 600
        },
        {
          "costume": "wall",
          "x": 540,
          "y": 600
        },
        {
          "costume": "wall",
          "x": 420,
          "y": 480
        },
        {
          "costume": "wall",
          "x": 420,
          "y": 540
        },
        {
          "costume": "wall",
          "x": 600,
          "y": 600
        },
        {
          "costume": "wall",
          "x": 660,
          "y": 600
        },
        {
          "costume": "wall",
          "x": 720,
          "y": 600
        },
        {
          "costume": "wall",
          "x": 780,
          "y": 600
        },
        {
          "costume": "wall",
          "x": 840,
          "y": 600
        },
        {
          "costume": "wall",
          "x": 840,
          "y": 540
        },
        {
          "costume": "wall",
          "x": 840,
          "y": 480
        },
        {
          "costume": "wall",
          "x": 660,
          "y": 420
        }
      ]
    },
    {
      "name": "extra",
      "actors": [
        {
          "costume": "test",
          "x": 540,
          "y": 540,
          "attributes": [
            {
              "name": "expectedCostumeName",
              "value": "autoPlayer"
            },
            {
              "name": "expectedActorName",
              "value": ""
            }
          ]
        }
      ]
    }
  ]
}