{
  "director": "PlayDirector",
  "directorAttributes": [
    {
      "name": "cheatInstructions",
      "value": ""
    },
    {
      "name": "sceneTitle",
      "value": "Balloons"
    }
  ],
  "background": "#000000",
  "showMouse": true,
  "layout": "default",
  "snapToGrid": {
    "enabled": false,
    "xSpacing": 50,
    "ySpacing": 50,
    "xOffset": 0,
    "yOffset": 0,
    "xCloseness": 10,
    "yCloseness": 10
  },
  "snapToGuides": {
    "enabled": true,
    "closeness": 5,
    "x": [
      
    ],
    "y": [
      
    ]
  },
  "snapToOthers": {
    "enabled": true,
    "xCloseness": 10,
    "yCloseness": 10
  },
  "snapRotation": {
    "enabled": true,
    "step": 15,
    "closeness": 15
  },
  "include": [
    
  ],
  "stages": [
    {
      "name": "main",
      "actors": [
        {
          "costume": "wall",
          "x": 0,
          "y": 540
        },
        {
          "costume": "wall",
          "x": 60,
          "y": 720
        },
        {
          "costume": "wall",
          "x": 0,
          "y": 600
        },
        {
          "costume": "wall",
          "x": 0,
          "y": 660
        },
        {
          "costume": "wall",
          "x": 180,
          "y": 720
        },
        {
          "costume": "wall",
          "x": 120,
          "y": 720
        },
        {
          "costume": "wall",
          "x": 240,
          "y": 720
        },
        {
          "costume": "wall",
          "x": 300,
          "y": 720
        },
        {
          "costume": "wall",
          "x": 360,
          "y": 720
        },
        {
          "costume": "wall",
          "x": 420,
          "y": 720
        },
        {
          "costume": "wall",
          "x": 480,
          "y": 720
        },
        {
          "costume": "wall",
          "x": 540,
          "y": 720
        },
        {
          "costume": "wall",
          "x": 600,
          "y": 720
        },
        {
          "costume": "wall",
          "x": 840,
          "y": 0
        },
        {
          "costume": "wall",
          "x": 780,
          "y": 0
        },
        {
          "costume": "wall",
          "x": 720,
          "y": 0
        },
        {
          "costume": "wall",
          "x": 660,
          "y": 0
        },
        {
          "costume": "wall",
          "x": 0,
          "y": 480
        },
        {
          "costume": "wall",
          "x": 0,
          "y": 420
        },
        {
          "costume": "wall",
          "x": 0,
          "y": 360
        },
        {
          "costume": "wall",
          "x": 0,
          "y": 300
        },
        {
          "costume": "wall",
          "x": 0,
          "y": 240
        },
        {
          "costume": "wall",
          "x": 0,
          "y": 180
        },
        {
          "costume": "wall",
          "x": 0,
          "y": 60
        },
        {
          "costume": "wall",
          "x": 60,
          "y": 0
        },
        {
          "costume": "wall",
          "x": 120,
          "y": 0
        },
        {
          "costume": "wall",
          "x": 180,
          "y": 0
        },
        {
          "costume": "wall",
          "x": 240,
          "y": 0
        },
        {
          "costume": "wall",
          "x": 300,
          "y": 0
        },
        {
          "costume": "wall",
          "x": 360,
          "y": 0
        },
        {
          "costume": "wall",
          "x": 420,
          "y": 0
        },
        {
          "costume": "wall",
          "x": 540,
          "y": 0
        },
        {
          "costume": "wall",
          "x": 600,
          "y": 0
        },
        {
          "costume": "wallSE",
          "x": 900,
          "y": 0
        },
        {
          "costume": "wallSW",
          "x": 0,
          "y": 0
        },
        {
          "costume": "wallNW",
          "x": 0,
          "y": 720
        },
        {
          "costume": "wall",
          "x": 660,
          "y": 720
        },
        {
          "costume": "wall",
          "x": 720,
          "y": 720
        },
        {
          "costume": "wall",
          "x": 780,
          "y": 720
        },
        {
          "costume": "wall",
          "x": 0,
          "y": 120
        },
        {
          "costume": "wall",
          "x": 900,
          "y": 660
        },
        {
          "costume": "wall",
          "x": 900,
          "y": 600
        },
        {
          "costume": "wall",
          "x": 900,
          "y": 480
        },
        {
          "costume": "wall",
          "x": 900,
          "y": 420
        },
        {
          "costume": "wall",
          "x": 900,
          "y": 360
        },
        {
          "costume": "wall",
          "x": 900,
          "y": 300
        },
        {
          "costume": "wall",
          "x": 900,
          "y": 60
        },
        {
          "costume": "wall",
          "x": 900,
          "y": 120
        },
        {
          "costume": "wall",
          "x": 900,
          "y": 180
        },
        {
          "costume": "wall",
          "x": 900,
          "y": 240
        },
        {
          "costume": "wall",
          "x": 480,
          "y": 0
        },
        {
          "costume": "wall",
          "x": 840,
          "y": 720
        },
        {
          "costume": "wall",
          "x": 900,
          "y": 540
        },
        {
          "costume": "wallNE",
          "x": 900,
          "y": 720
        },
        {
          "costume": "wall",
          "x": 360,
          "y": 120
        },
        {
          "costume": "wall",
          "x": 240,
          "y": 240
        },
        {
          "costume": "wall",
          "x": 240,
          "y": 180
        },
        {
          "costume": "wall",
          "x": 240,
          "y": 300
        },
        {
          "costume": "wall",
          "x": 300,
          "y": 360
        },
        {
          "costume": "wall",
          "x": 420,
          "y": 360
        },
        {
          "costume": "wall",
          "x": 360,
          "y": 360
        },
        {
          "costume": "wall",
          "x": 480,
          "y": 360
        },
        {
          "costume": "wall",
          "x": 540,
          "y": 360
        },
        {
          "costume": "wall",
          "x": 600,
          "y": 420
        },
        {
          "costume": "wall",
          "x": 600,
          "y": 480
        },
        {
          "costume": "wall",
          "x": 600,
          "y": 540
        },
        {
          "costume": "wall",
          "x": 540,
          "y": 600
        },
        {
          "costume": "wall",
          "x": 420,
          "y": 600
        },
        {
          "costume": "wall",
          "x": 360,
          "y": 600
        },
        {
          "costume": "wall",
          "x": 480,
          "y": 600
        },
        {
          "costume": "wall",
          "x": 300,
          "y": 600
        },
        {
          "costume": "wall",
          "x": 300,
          "y": 120
        },
        {
          "costume": "wall",
          "x": 480,
          "y": 120
        },
        {
          "costume": "wall",
          "x": 540,
          "y": 120
        },
        {
          "costume": "wall",
          "x": 420,
          "y": 120
        },
        {
          "costume": "wallSW",
          "x": 720,
          "y": 660
        },
        {
          "costume": "wallSE",
          "x": 780,
          "y": 660
        },
        {
          "costume": "wall",
          "x": 660,
          "y": 180
        },
        {
          "costume": "wall",
          "x": 720,
          "y": 180
        },
        {
          "costume": "wall",
          "x": 780,
          "y": 180
        },
        {
          "costume": "wall",
          "x": 840,
          "y": 180
        },
        {
          "costume": "wallSW",
          "x": 240,
          "y": 120
        },
        {
          "costume": "wallNW",
          "x": 600,
          "y": 180
        },
        {
          "costume": "wallSE",
          "x": 600,
          "y": 120
        },
        {
          "costume": "wallSE",
          "x": 600,
          "y": 360
        },
        {
          "costume": "wallNW",
          "x": 240,
          "y": 360
        },
        {
          "costume": "wallSW",
          "x": 240,
          "y": 540
        },
        {
          "costume": "wallNW",
          "x": 240,
          "y": 600
        },
        {
          "costume": "wallNE",
          "x": 600,
          "y": 600
        },
        {
          "costume": "wallSE",
          "x": 300,
          "y": 300
        },
        {
          "costume": "wallNE",
          "x": 300,
          "y": 180
        },
        {
          "costume": "soil",
          "x": 660,
          "y": 600
        },
        {
          "costume": "soil",
          "x": 720,
          "y": 600
        },
        {
          "costume": "soil",
          "x": 780,
          "y": 600
        },
        {
          "costume": "soil",
          "x": 840,
          "y": 600
        },
        {
          "costume": "soil",
          "x": 660,
          "y": 300
        },
        {
          "costume": "soil",
          "x": 720,
          "y": 300
        },
        {
          "costume": "soil",
          "x": 780,
          "y": 300
        },
        {
          "costume": "soil",
          "x": 840,
          "y": 300
        },
        {
          "costume": "balloon",
          "x": 300,
          "y": 420
        },
        {
          "costume": "balloon",
          "x": 480,
          "y": 480
        },
        {
          "costume": "balloon",
          "x": 540,
          "y": 420
        },
        {
          "costume": "balloon",
          "x": 360,
          "y": 540
        },
        {
          "costume": "balloon",
          "x": 480,
          "y": 540
        },
        {
          "costume": "balloon",
          "x": 180,
          "y": 60
        },
        {
          "costume": "balloon",
          "x": 600,
          "y": 60
        },
        {
          "costume": "balloon",
          "x": 540,
          "y": 60
        },
        {
          "costume": "balloon",
          "x": 480,
          "y": 60
        },
        {
          "costume": "balloon",
          "x": 660,
          "y": 420
        },
        {
          "costume": "balloon",
          "x": 720,
          "y": 420
        },
        {
          "costume": "balloon",
          "x": 780,
          "y": 420
        },
        {
          "costume": "balloon",
          "x": 840,
          "y": 420
        },
        {
          "costume": "balloon",
          "x": 660,
          "y": 480
        },
        {
          "costume": "balloon",
          "x": 720,
          "y": 480
        },
        {
          "costume": "balloon",
          "x": 780,
          "y": 480
        },
        {
          "costume": "balloon",
          "x": 840,
          "y": 480
        },
        {
          "costume": "balloon",
          "x": 660,
          "y": 540
        },
        {
          "costume": "balloon",
          "x": 720,
          "y": 540
        },
        {
          "costume": "balloon",
          "x": 840,
          "y": 540
        },
        {
          "costume": "balloon",
          "x": 780,
          "y": 540
        },
        {
          "costume": "balloon",
          "x": 660,
          "y": 360
        },
        {
          "costume": "balloon",
          "x": 720,
          "y": 360
        },
        {
          "costume": "balloon",
          "x": 840,
          "y": 360
        },
        {
          "costume": "balloon",
          "x": 780,
          "y": 360
        },
        {
          "costume": "balloon",
          "x": 840,
          "y": 240
        },
        {
          "costume": "balloon",
          "x": 780,
          "y": 240
        },
        {
          "costume": "balloon",
          "x": 720,
          "y": 240
        },
        {
          "costume": "balloon",
          "x": 660,
          "y": 240
        },
        {
          "costume": "balloon",
          "x": 600,
          "y": 240
        },
        {
          "costume": "balloon",
          "x": 600,
          "y": 300
        },
        {
          "costume": "balloon",
          "x": 540,
          "y": 300
        },
        {
          "costume": "balloon",
          "x": 360,
          "y": 180
        },
        {
          "costume": "balloon",
          "x": 420,
          "y": 180
        },
        {
          "costume": "balloon",
          "x": 480,
          "y": 180
        },
        {
          "costume": "gateCompleted",
          "x": 420,
          "y": 300,
          "attributes": [
            {
              "name": "scene",
              "value": "hub"
            }
          ]
        },
        {
          "costume": "coin",
          "x": 480,
          "y": 420
        },
        {
          "costume": "coin",
          "x": 420,
          "y": 480
        },
        {
          "costume": "coin",
          "x": 420,
          "y": 540
        },
        {
          "costume": "coin",
          "x": 360,
          "y": 420
        },
        {
          "costume": "coin",
          "x": 360,
          "y": 480
        },
        {
          "costume": "coin",
          "x": 300,
          "y": 480
        },
        {
          "costume": "coin",
          "x": 300,
          "y": 540
        },
        {
          "costume": "coin",
          "x": 540,
          "y": 540
        },
        {
          "costume": "coin",
          "x": 540,
          "y": 480
        },
        {
          "costume": "coin",
          "x": 240,
          "y": 420
        },
        {
          "costume": "coin",
          "x": 240,
          "y": 480
        },
        {
          "costume": "coin",
          "x": 180,
          "y": 360
        },
        {
          "costume": "coin",
          "x": 60,
          "y": 420
        },
        {
          "costume": "coin",
          "x": 120,
          "y": 240
        },
        {
          "costume": "coin",
          "x": 180,
          "y": 120
        },
        {
          "costume": "coin",
          "x": 60,
          "y": 120
        },
        {
          "costume": "coin",
          "x": 660,
          "y": 120
        },
        {
          "costume": "coin",
          "x": 720,
          "y": 120
        },
        {
          "costume": "coin",
          "x": 780,
          "y": 120
        },
        {
          "costume": "coin",
          "x": 840,
          "y": 120
        },
        {
          "costume": "coin",
          "x": 120,
          "y": 120
        },
        {
          "costume": "coin",
          "x": 360,
          "y": 300
        },
        {
          "costume": "coin",
          "x": 360,
          "y": 240
        },
        {
          "costume": "coin",
          "x": 420,
          "y": 240
        },
        {
          "costume": "coin",
          "x": 480,
          "y": 240
        },
        {
          "costume": "coin",
          "x": 480,
          "y": 300
        },
        {
          "costume": "coin",
          "x": 540,
          "y": 240
        },
        {
          "costume": "coin",
          "x": 300,
          "y": 240
        },
        {
          "costume": "burton",
          "x": 420,
          "y": 420,
          "attributes": [
            {
              "name": "offsetX",
              "value": "0"
            },
            {
              "name": "offsetY",
              "value": "0"
            }
          ]
        }
      ]
    },
    {
      "name": "extra",
      "actors": [
        {
          "costume": "progress",
          "x": 600,
          "y": 660,
          "attributes": [
            {
              "name": "expectedCostumeName",
              "value": "balloon"
            },
            {
              "name": "text",
              "value": "I think we are stuck."
            },
            {
              "name": "duration",
              "value": "4"
            }
          ]
        }
      ]
    }
  ]
}