{
  "director": "XORTestDirector",
  "directorAttributes": [
    {
      "name": "nextScene",
      "value": "tests/xor/2_more"
    },
    {
      "name": "cheatInstructions",
      "value": ""
    },
    {
      "name": "extraValuables",
      "value": "0"
    },
    {
      "name": "sceneTitle",
      "value": ""
    }
  ],
  "background": "#000000",
  "showMouse": true,
  "layout": "xor",
  "snapToGrid": {
    "enabled": false,
    "xSpacing": 50,
    "ySpacing": 50,
    "xOffset": 0,
    "yOffset": 0,
    "xCloseness": 10,
    "yCloseness": 10
  },
  "snapToGuides": {
    "enabled": true,
    "closeness": 5,
    "x": [
      
    ],
    "y": [
      
    ]
  },
  "snapToOthers": {
    "enabled": true,
    "xCloseness": 10,
    "yCloseness": 10
  },
  "snapRotation": {
    "enabled": true,
    "step": 15,
    "closeness": 15
  },
  "include": [
    
  ],
  "stages": [
    {
      "name": "main",
      "actors": [
        {
          "costume": "xorChicken",
          "x": 288,
          "y": 504
        },
        {
          "costume": "xorFish",
          "x": 252,
          "y": 504
        },
        {
          "costume": "xorFish",
          "x": 252,
          "y": 540
        },
        {
          "costume": "xorFish",
          "x": 288,
          "y": 540
        },
        {
          "costume": "autoPlayer",
          "x": 324,
          "y": 468,
          "attributes": [
            {
              "name": "instructions",
              "value": "...LLRRUULRDDDLLRRU"
            },
            {
              "name": "mustFinish",
              "value": "true"
            },
            {
              "name": "shouldDie",
              "value": "false"
            },
            {
              "name": "offsetX",
              "value": "0"
            },
            {
              "name": "offsetY",
              "value": "0"
            }
          ]
        },
        {
          "costume": "xorFish",
          "x": 540,
          "y": 504
        },
        {
          "costume": "xorHBomb",
          "x": 540,
          "y": 432
        },
        {
          "costume": "xorFish",
          "x": 504,
          "y": 432
        },
        {
          "costume": "xorFish",
          "x": 576,
          "y": 432
        },
        {
          "costume": "autoPlayer",
          "x": 576,
          "y": 468,
          "attributes": [
            {
              "name": "instructions",
              "value": "LR"
            },
            {
              "name": "mustFinish",
              "value": "true"
            },
            {
              "name": "shouldDie",
              "value": "false"
            },
            {
              "name": "offsetX",
              "value": "0"
            },
            {
              "name": "offsetY",
              "value": "0"
            }
          ]
        },
        {
          "costume": "xorBeamMeUp",
          "x": 72,
          "y": 612,
          "attributes": [
            {
              "name": "gatePair",
              "value": ""
            }
          ]
        },
        {
          "costume": "xorBeamMeUp",
          "x": 108,
          "y": 432,
          "attributes": [
            {
              "name": "gatePair",
              "value": ""
            }
          ]
        },
        {
          "costume": "autoPlayer",
          "x": 108,
          "y": 576,
          "attributes": [
            {
              "name": "instructions",
              "value": "ULLDR"
            },
            {
              "name": "mustFinish",
              "value": "true"
            },
            {
              "name": "shouldDie",
              "value": "false"
            },
            {
              "name": "offsetX",
              "value": "0"
            },
            {
              "name": "offsetY",
              "value": "0"
            }
          ]
        },
        {
          "costume": "xorChicken",
          "x": 360,
          "y": 180
        },
        {
          "costume": "xorChicken",
          "x": 324,
          "y": 180
        },
        {
          "costume": "xorChicken",
          "x": 360,
          "y": 216
        },
        {
          "costume": "xorFish",
          "x": 324,
          "y": 216
        },
        {
          "costume": "autoPlayer",
          "x": 288,
          "y": 216,
          "attributes": [
            {
              "name": "instructions",
              "value": "DU"
            },
            {
              "name": "mustFinish",
              "value": "true"
            },
            {
              "name": "shouldDie",
              "value": "false"
            },
            {
              "name": "offsetX",
              "value": "0"
            },
            {
              "name": "offsetY",
              "value": "0"
            }
          ]
        },
        {
          "costume": "xorMask",
          "x": 252,
          "y": 468
        },
        {
          "costume": "xorMask",
          "x": 252,
          "y": 432
        },
        {
          "costume": "xorWall",
          "x": 252,
          "y": 396
        },
        {
          "costume": "xorWall",
          "x": 216,
          "y": 396
        },
        {
          "costume": "xorWall",
          "x": 288,
          "y": 396
        },
        {
          "costume": "xorWall",
          "x": 324,
          "y": 396
        },
        {
          "costume": "xorWall",
          "x": 360,
          "y": 396
        },
        {
          "costume": "xorWall",
          "x": 216,
          "y": 432
        },
        {
          "costume": "xorWall",
          "x": 216,
          "y": 468
        },
        {
          "costume": "xorWall",
          "x": 216,
          "y": 540
        },
        {
          "costume": "xorWall",
          "x": 216,
          "y": 576
        },
        {
          "costume": "xorWall",
          "x": 216,
          "y": 612
        },
        {
          "costume": "xorWall",
          "x": 216,
          "y": 504
        },
        {
          "costume": "xorWall",
          "x": 252,
          "y": 612
        },
        {
          "costume": "xorWall",
          "x": 288,
          "y": 612
        },
        {
          "costume": "xorWall",
          "x": 324,
          "y": 612
        },
        {
          "costume": "xorWall",
          "x": 360,
          "y": 612
        },
        {
          "costume": "xorWall",
          "x": 360,
          "y": 576
        },
        {
          "costume": "xorWall",
          "x": 360,
          "y": 540
        },
        {
          "costume": "xorWall",
          "x": 360,
          "y": 504
        },
        {
          "costume": "xorWall",
          "x": 360,
          "y": 468
        },
        {
          "costume": "xorWall",
          "x": 360,
          "y": 432
        },
        {
          "costume": "xorMask",
          "x": 72,
          "y": 468
        },
        {
          "costume": "xorWall",
          "x": 144,
          "y": 432
        },
        {
          "costume": "xorWall",
          "x": 144,
          "y": 468
        },
        {
          "costume": "xorWall",
          "x": 144,
          "y": 396
        },
        {
          "costume": "xorWall",
          "x": 108,
          "y": 396
        },
        {
          "costume": "xorWall",
          "x": 72,
          "y": 396
        },
        {
          "costume": "xorWall",
          "x": 36,
          "y": 396
        },
        {
          "costume": "xorWall",
          "x": 36,
          "y": 432
        },
        {
          "costume": "xorWall",
          "x": 36,
          "y": 468
        },
        {
          "costume": "xorWall",
          "x": 36,
          "y": 504
        },
        {
          "costume": "xorWall",
          "x": 36,
          "y": 576
        },
        {
          "costume": "xorWall",
          "x": 36,
          "y": 540
        },
        {
          "costume": "xorWall",
          "x": 36,
          "y": 612
        },
        {
          "costume": "xorWall",
          "x": 36,
          "y": 648
        },
        {
          "costume": "xorWall",
          "x": 72,
          "y": 648
        },
        {
          "costume": "xorWall",
          "x": 108,
          "y": 648
        },
        {
          "costume": "xorWall",
          "x": 144,
          "y": 648
        },
        {
          "costume": "xorWall",
          "x": 144,
          "y": 612
        },
        {
          "costume": "xorWall",
          "x": 144,
          "y": 576
        },
        {
          "costume": "xorWall",
          "x": 144,
          "y": 540
        },
        {
          "costume": "xorWall",
          "x": 144,
          "y": 504
        },
        {
          "costume": "xorWall",
          "x": 72,
          "y": 540
        },
        {
          "costume": "xorWall",
          "x": 108,
          "y": 540
        },
        {
          "costume": "xorWall",
          "x": 432,
          "y": 396
        },
        {
          "costume": "xorWall",
          "x": 432,
          "y": 432
        },
        {
          "costume": "xorWall",
          "x": 432,
          "y": 468
        },
        {
          "costume": "xorWall",
          "x": 432,
          "y": 504
        },
        {
          "costume": "xorWall",
          "x": 432,
          "y": 540
        },
        {
          "costume": "xorWall",
          "x": 432,
          "y": 576
        },
        {
          "costume": "xorWall",
          "x": 468,
          "y": 576
        },
        {
          "costume": "xorWall",
          "x": 504,
          "y": 576
        },
        {
          "costume": "xorWall",
          "x": 540,
          "y": 576
        },
        {
          "costume": "xorWall",
          "x": 576,
          "y": 576
        },
        {
          "costume": "xorWall",
          "x": 612,
          "y": 576
        },
        {
          "costume": "xorWall",
          "x": 648,
          "y": 576
        },
        {
          "costume": "xorWall",
          "x": 648,
          "y": 540
        },
        {
          "costume": "xorWall",
          "x": 648,
          "y": 504
        },
        {
          "costume": "xorWall",
          "x": 648,
          "y": 468
        },
        {
          "costume": "xorWall",
          "x": 648,
          "y": 432
        },
        {
          "costume": "xorWall",
          "x": 648,
          "y": 396
        },
        {
          "costume": "xorWall",
          "x": 612,
          "y": 396
        },
        {
          "costume": "xorWall",
          "x": 576,
          "y": 396
        },
        {
          "costume": "xorWall",
          "x": 540,
          "y": 396
        },
        {
          "costume": "xorWall",
          "x": 504,
          "y": 396
        },
        {
          "costume": "xorWall",
          "x": 468,
          "y": 396
        },
        {
          "costume": "xorDots",
          "x": 540,
          "y": 468
        },
        {
          "costume": "xorWall",
          "x": 324,
          "y": 144
        },
        {
          "costume": "xorWall",
          "x": 396,
          "y": 144
        },
        {
          "costume": "xorWall",
          "x": 0,
          "y": 0
        },
        {
          "costume": "xorWall",
          "x": 432,
          "y": 144
        },
        {
          "costume": "xorWall",
          "x": 360,
          "y": 144
        },
        {
          "costume": "xorWall",
          "x": 468,
          "y": 144
        },
        {
          "costume": "xorWall",
          "x": 468,
          "y": 180
        },
        {
          "costume": "xorWall",
          "x": 468,
          "y": 216
        },
        {
          "costume": "xorWall",
          "x": 468,
          "y": 288
        },
        {
          "costume": "xorWall",
          "x": 468,
          "y": 252
        },
        {
          "costume": "xorWall",
          "x": 468,
          "y": 324
        },
        {
          "costume": "xorWall",
          "x": 432,
          "y": 324
        },
        {
          "costume": "xorWall",
          "x": 396,
          "y": 324
        },
        {
          "costume": "xorWall",
          "x": 360,
          "y": 324
        },
        {
          "costume": "xorWall",
          "x": 324,
          "y": 324
        },
        {
          "costume": "xorWall",
          "x": 288,
          "y": 324
        },
        {
          "costume": "xorWall",
          "x": 252,
          "y": 324
        },
        {
          "costume": "xorWall",
          "x": 216,
          "y": 324
        },
        {
          "costume": "xorWall",
          "x": 180,
          "y": 324
        },
        {
          "costume": "xorWall",
          "x": 180,
          "y": 288
        },
        {
          "costume": "xorWall",
          "x": 180,
          "y": 252
        },
        {
          "costume": "xorWall",
          "x": 180,
          "y": 216
        },
        {
          "costume": "xorWall",
          "x": 180,
          "y": 180
        },
        {
          "costume": "xorWall",
          "x": 180,
          "y": 144
        },
        {
          "costume": "xorWall",
          "x": 216,
          "y": 144
        },
        {
          "costume": "xorWall",
          "x": 252,
          "y": 144
        },
        {
          "costume": "xorWall",
          "x": 288,
          "y": 144
        },
        {
          "costume": "xorMask",
          "x": 288,
          "y": 180
        },
        {
          "costume": "xorWaves",
          "x": 252,
          "y": 180
        }
      ]
    },
    {
      "name": "extra",
      "actors": [
        {
          "costume": "test",
          "x": 288,
          "y": 504,
          "attributes": [
            {
              "name": "expectedCostumeName",
              "value": "xorChicken"
            },
            {
              "name": "expectedActorName",
              "value": ""
            }
          ]
        },
        {
          "costume": "test",
          "x": 252,
          "y": 468,
          "attributes": [
            {
              "name": "expectedCostumeName",
              "value": "xorFish"
            },
            {
              "name": "expectedActorName",
              "value": ""
            }
          ]
        },
        {
          "costume": "test",
          "x": 252,
          "y": 432,
          "attributes": [
            {
              "name": "expectedCostumeName",
              "value": "xorFish"
            },
            {
              "name": "expectedActorName",
              "value": ""
            }
          ]
        },
        {
          "costume": "test",
          "x": 252,
          "y": 504,
          "attributes": [
            {
              "name": "expectedCostumeName",
              "value": "xorFish"
            },
            {
              "name": "expectedActorName",
              "value": ""
            }
          ]
        },
        {
          "costume": "test",
          "x": 324,
          "y": 468,
          "attributes": [
            {
              "name": "expectedCostumeName",
              "value": "autoPlayer"
            },
            {
              "name": "expectedActorName",
              "value": ""
            }
          ]
        },
        {
          "costume": "test",
          "x": 576,
          "y": 432,
          "attributes": [
            {
              "name": "expectedCostumeName",
              "value": ""
            },
            {
              "name": "expectedActorName",
              "value": ""
            }
          ]
        },
        {
          "costume": "test",
          "x": 504,
          "y": 432,
          "attributes": [
            {
              "name": "expectedCostumeName",
              "value": ""
            },
            {
              "name": "expectedActorName",
              "value": ""
            }
          ]
        },
        {
          "costume": "test",
          "x": 108,
          "y": 612,
          "attributes": [
            {
              "name": "expectedCostumeName",
              "value": "autoPlayer"
            },
            {
              "name": "expectedActorName",
              "value": ""
            }
          ]
        },
        {
          "costume": "test",
          "x": 72,
          "y": 468,
          "attributes": [
            {
              "name": "expectedCostumeName",
              "value": ""
            },
            {
              "name": "expectedActorName",
              "value": ""
            }
          ]
        },
        {
          "costume": "test",
          "x": 288,
          "y": 180,
          "attributes": [
            {
              "name": "expectedCostumeName",
              "value": "xorChicken"
            },
            {
              "name": "expectedActorName",
              "value": ""
            }
          ]
        },
        {
          "costume": "test",
          "x": 324,
          "y": 216,
          "attributes": [
            {
              "name": "expectedCostumeName",
              "value": "xorFish"
            },
            {
              "name": "expectedActorName",
              "value": ""
            }
          ]
        }
      ]
    }
  ]
}