{
  "director": "XORDirector",
  "directorAttributes": [
    {
      "name": "sceneTitle",
      "value": "Dots and Waves"
    },
    {
      "name": "wall",
      "value": "brick1"
    },
    {
      "name": "cheatInstructions",
      "value": ""
    }
  ],
  "background": "#000000",
  "showMouse": true,
  "layout": "xor",
  "snapToGrid": {
    "enabled": false,
    "xSpacing": 50,
    "ySpacing": 50,
    "xOffset": 0,
    "yOffset": 0,
    "xCloseness": 10,
    "yCloseness": 10
  },
  "snapToGuides": {
    "enabled": true,
    "closeness": 5,
    "x": [
      
    ],
    "y": [
      
    ]
  },
  "snapToOthers": {
    "enabled": true,
    "xCloseness": 10,
    "yCloseness": 10
  },
  "snapRotation": {
    "enabled": true,
    "step": 15,
    "closeness": 15
  },
  "include": [
    
  ],
  "stages": [
    {
      "name": "main",
      "actors": [
        {
          "costume": "xorWall",
          "x": 0,
          "y": 612
        },
        {
          "costume": "xorWall",
          "x": 36,
          "y": 612
        },
        {
          "costume": "xorWall",
          "x": 72,
          "y": 612
        },
        {
          "costume": "xorWall",
          "x": 108,
          "y": 612
        },
        {
          "costume": "xorWall",
          "x": 144,
          "y": 612
        },
        {
          "costume": "xorWall",
          "x": 180,
          "y": 612
        },
        {
          "costume": "xorWall",
          "x": 216,
          "y": 612
        },
        {
          "costume": "xorWall",
          "x": 252,
          "y": 612
        },
        {
          "costume": "xorWall",
          "x": 288,
          "y": 612
        },
        {
          "costume": "xorWall",
          "x": 324,
          "y": 612
        },
        {
          "costume": "xorWall",
          "x": 360,
          "y": 612
        },
        {
          "costume": "xorWall",
          "x": 396,
          "y": 612
        },
        {
          "costume": "xorWall",
          "x": 432,
          "y": 612
        },
        {
          "costume": "xorWall",
          "x": 468,
          "y": 612
        },
        {
          "costume": "xorWall",
          "x": 504,
          "y": 612
        },
        {
          "costume": "xorWall",
          "x": 540,
          "y": 612
        },
        {
          "costume": "xorWall",
          "x": 576,
          "y": 612
        },
        {
          "costume": "xorWall",
          "x": 612,
          "y": 612
        },
        {
          "costume": "xorWall",
          "x": 648,
          "y": 612
        },
        {
          "costume": "xorWall",
          "x": 684,
          "y": 612
        },
        {
          "costume": "xorWall",
          "x": 720,
          "y": 612
        },
        {
          "costume": "xorWall",
          "x": 756,
          "y": 612
        },
        {
          "costume": "xorWall",
          "x": 792,
          "y": 612
        },
        {
          "costume": "xorWall",
          "x": 828,
          "y": 612
        },
        {
          "costume": "xorWall",
          "x": 864,
          "y": 612
        },
        {
          "costume": "xorWall",
          "x": 900,
          "y": 612
        },
        {
          "costume": "xorWall",
          "x": 936,
          "y": 612
        },
        {
          "costume": "xorWall",
          "x": 972,
          "y": 612
        },
        {
          "costume": "xorWall",
          "x": 1008,
          "y": 612
        },
        {
          "costume": "xorWall",
          "x": 1044,
          "y": 612
        },
        {
          "costume": "xorWall",
          "x": 1080,
          "y": 612
        },
        {
          "costume": "xorWall",
          "x": 1116,
          "y": 612
        },
        {
          "costume": "xorWall",
          "x": 0,
          "y": 576
        },
        {
          "costume": "xorDots",
          "x": 396,
          "y": 576
        },
        {
          "costume": "xorDots",
          "x": 432,
          "y": 576
        },
        {
          "costume": "xorDots",
          "x": 468,
          "y": 576
        },
        {
          "costume": "xorWall",
          "x": 1116,
          "y": 576
        },
        {
          "costume": "xorWall",
          "x": 0,
          "y": 540
        },
        {
          "costume": "xorWall",
          "x": 72,
          "y": 540
        },
        {
          "costume": "xorWall",
          "x": 108,
          "y": 540
        },
        {
          "costume": "xorWall",
          "x": 144,
          "y": 540
        },
        {
          "costume": "xorWall",
          "x": 180,
          "y": 540
        },
        {
          "costume": "xorWall",
          "x": 216,
          "y": 540
        },
        {
          "costume": "xorWall",
          "x": 252,
          "y": 540
        },
        {
          "costume": "xorWall",
          "x": 288,
          "y": 540
        },
        {
          "costume": "xorWall",
          "x": 324,
          "y": 540
        },
        {
          "costume": "xorWall",
          "x": 360,
          "y": 540
        },
        {
          "costume": "xorWall",
          "x": 396,
          "y": 540
        },
        {
          "costume": "xorDots",
          "x": 432,
          "y": 540
        },
        {
          "costume": "xorWall",
          "x": 468,
          "y": 540
        },
        {
          "costume": "xorWall",
          "x": 504,
          "y": 540
        },
        {
          "costume": "xorWall",
          "x": 540,
          "y": 540
        },
        {
          "costume": "xorWall",
          "x": 576,
          "y": 540
        },
        {
          "costume": "xorWall",
          "x": 612,
          "y": 540
        },
        {
          "costume": "xorWall",
          "x": 648,
          "y": 540
        },
        {
          "costume": "xorWall",
          "x": 684,
          "y": 540
        },
        {
          "costume": "xorWall",
          "x": 720,
          "y": 540
        },
        {
          "costume": "xorWall",
          "x": 756,
          "y": 540
        },
        {
          "costume": "xorWall",
          "x": 792,
          "y": 540
        },
        {
          "costume": "xorWall",
          "x": 828,
          "y": 540
        },
        {
          "costume": "xorWall",
          "x": 864,
          "y": 540
        },
        {
          "costume": "xorWall",
          "x": 900,
          "y": 540
        },
        {
          "costume": "xorWall",
          "x": 936,
          "y": 540
        },
        {
          "costume": "xorWall",
          "x": 972,
          "y": 540
        },
        {
          "costume": "xorWall",
          "x": 1008,
          "y": 540
        },
        {
          "costume": "xorWall",
          "x": 1044,
          "y": 540
        },
        {
          "costume": "xorWall",
          "x": 1116,
          "y": 540
        },
        {
          "costume": "xorWall",
          "x": 0,
          "y": 504
        },
        {
          "costume": "xorWall",
          "x": 72,
          "y": 504
        },
        {
          "costume": "xorMask",
          "x": 108,
          "y": 504
        },
        {
          "costume": "xorWaves",
          "x": 144,
          "y": 504
        },
        {
          "costume": "xorMap",
          "x": 288,
          "y": 504
        },
        {
          "costume": "xorPlayer2",
          "x": 360,
          "y": 504,
          "attributes": [
            {
              "name": "offsetX",
              "value": "0"
            },
            {
              "name": "offsetY",
              "value": "0"
            }
          ]
        },
        {
          "costume": "xorWall",
          "x": 396,
          "y": 504
        },
        {
          "costume": "xorDots",
          "x": 720,
          "y": 504
        },
        {
          "costume": "xorDots",
          "x": 756,
          "y": 504
        },
        {
          "costume": "xorDots",
          "x": 792,
          "y": 504
        },
        {
          "costume": "xorDots",
          "x": 828,
          "y": 504
        },
        {
          "costume": "xorDots",
          "x": 864,
          "y": 504
        },
        {
          "costume": "xorWall",
          "x": 1044,
          "y": 504
        },
        {
          "costume": "xorWall",
          "x": 1116,
          "y": 504
        },
        {
          "costume": "xorWall",
          "x": 0,
          "y": 468
        },
        {
          "costume": "xorMask",
          "x": 36,
          "y": 468
        },
        {
          "costume": "xorWall",
          "x": 72,
          "y": 468
        },
        {
          "costume": "xorMask",
          "x": 108,
          "y": 468
        },
        {
          "costume": "xorWall",
          "x": 324,
          "y": 468
        },
        {
          "costume": "xorWall",
          "x": 360,
          "y": 468
        },
        {
          "costume": "xorWall",
          "x": 396,
          "y": 468
        },
        {
          "costume": "xorWall",
          "x": 468,
          "y": 468
        },
        {
          "costume": "xorWall",
          "x": 504,
          "y": 468
        },
        {
          "costume": "xorWall",
          "x": 540,
          "y": 468
        },
        {
          "costume": "xorWall",
          "x": 576,
          "y": 468
        },
        {
          "costume": "xorWall",
          "x": 612,
          "y": 468
        },
        {
          "costume": "xorWall",
          "x": 648,
          "y": 468
        },
        {
          "costume": "xorWall",
          "x": 684,
          "y": 468
        },
        {
          "costume": "xorWall",
          "x": 720,
          "y": 468
        },
        {
          "costume": "xorWall",
          "x": 756,
          "y": 468
        },
        {
          "costume": "xorWall",
          "x": 792,
          "y": 468
        },
        {
          "costume": "xorWall",
          "x": 828,
          "y": 468
        },
        {
          "costume": "xorWall",
          "x": 864,
          "y": 468
        },
        {
          "costume": "xorWall",
          "x": 900,
          "y": 468
        },
        {
          "costume": "xorWall",
          "x": 936,
          "y": 468
        },
        {
          "costume": "xorWall",
          "x": 972,
          "y": 468
        },
        {
          "costume": "xorWall",
          "x": 1044,
          "y": 468
        },
        {
          "costume": "xorWall",
          "x": 1116,
          "y": 468
        },
        {
          "costume": "xorWall",
          "x": 0,
          "y": 432
        },
        {
          "costume": "xorWall",
          "x": 72,
          "y": 432
        },
        {
          "costume": "xorWall",
          "x": 108,
          "y": 432
        },
        {
          "costume": "xorWall",
          "x": 144,
          "y": 432
        },
        {
          "costume": "xorMask",
          "x": 324,
          "y": 432
        },
        {
          "costume": "xorWall",
          "x": 972,
          "y": 432
        },
        {
          "costume": "xorWall",
          "x": 1044,
          "y": 432
        },
        {
          "costume": "xorWall",
          "x": 1116,
          "y": 432
        },
        {
          "costume": "xorWall",
          "x": 0,
          "y": 396
        },
        {
          "costume": "xorWall",
          "x": 144,
          "y": 396
        },
        {
          "costume": "xorMask",
          "x": 180,
          "y": 396
        },
        {
          "costume": "xorWall",
          "x": 216,
          "y": 396
        },
        {
          "costume": "xorWall",
          "x": 252,
          "y": 396
        },
        {
          "costume": "xorWall",
          "x": 288,
          "y": 396
        },
        {
          "costume": "xorWall",
          "x": 324,
          "y": 396
        },
        {
          "costume": "xorWall",
          "x": 360,
          "y": 396
        },
        {
          "costume": "xorWall",
          "x": 396,
          "y": 396
        },
        {
          "costume": "xorDots",
          "x": 432,
          "y": 396
        },
        {
          "costume": "xorWall",
          "x": 468,
          "y": 396
        },
        {
          "costume": "xorWall",
          "x": 504,
          "y": 396
        },
        {
          "costume": "xorWall",
          "x": 540,
          "y": 396
        },
        {
          "costume": "xorWall",
          "x": 576,
          "y": 396
        },
        {
          "costume": "xorWall",
          "x": 612,
          "y": 396
        },
        {
          "costume": "xorWall",
          "x": 648,
          "y": 396
        },
        {
          "costume": "xorWall",
          "x": 684,
          "y": 396
        },
        {
          "costume": "xorWall",
          "x": 720,
          "y": 396
        },
        {
          "costume": "xorWall",
          "x": 756,
          "y": 396
        },
        {
          "costume": "xorWall",
          "x": 792,
          "y": 396
        },
        {
          "costume": "xorMap",
          "x": 828,
          "y": 396
        },
        {
          "costume": "xorWall",
          "x": 864,
          "y": 396
        },
        {
          "costume": "xorWall",
          "x": 900,
          "y": 396
        },
        {
          "costume": "xorWall",
          "x": 972,
          "y": 396
        },
        {
          "costume": "xorWall",
          "x": 1044,
          "y": 396
        },
        {
          "costume": "xorWall",
          "x": 1116,
          "y": 396
        },
        {
          "costume": "xorWall",
          "x": 0,
          "y": 360
        },
        {
          "costume": "xorWall",
          "x": 36,
          "y": 360
        },
        {
          "costume": "xorWall",
          "x": 72,
          "y": 360
        },
        {
          "costume": "xorWall",
          "x": 144,
          "y": 360
        },
        {
          "costume": "xorWall",
          "x": 216,
          "y": 360
        },
        {
          "costume": "xorWaves",
          "x": 252,
          "y": 360
        },
        {
          "costume": "xorWall",
          "x": 900,
          "y": 360
        },
        {
          "costume": "xorWall",
          "x": 972,
          "y": 360
        },
        {
          "costume": "xorWall",
          "x": 1044,
          "y": 360
        },
        {
          "costume": "xorWall",
          "x": 1116,
          "y": 360
        },
        {
          "costume": "xorWall",
          "x": 0,
          "y": 324
        },
        {
          "costume": "xorDots",
          "x": 36,
          "y": 324
        },
        {
          "costume": "xorDots",
          "x": 72,
          "y": 324
        },
        {
          "costume": "xorWall",
          "x": 144,
          "y": 324
        },
        {
          "costume": "xorMask",
          "x": 252,
          "y": 324
        },
        {
          "costume": "xorWall",
          "x": 288,
          "y": 324
        },
        {
          "costume": "xorWall",
          "x": 324,
          "y": 324
        },
        {
          "costume": "xorWall",
          "x": 360,
          "y": 324
        },
        {
          "costume": "xorWall",
          "x": 396,
          "y": 324
        },
        {
          "costume": "xorDots",
          "x": 432,
          "y": 324
        },
        {
          "costume": "xorWall",
          "x": 468,
          "y": 324
        },
        {
          "costume": "xorWall",
          "x": 504,
          "y": 324
        },
        {
          "costume": "xorWall",
          "x": 540,
          "y": 324
        },
        {
          "costume": "xorDots",
          "x": 576,
          "y": 324
        },
        {
          "costume": "xorDots",
          "x": 612,
          "y": 324
        },
        {
          "costume": "xorWaves",
          "x": 648,
          "y": 324
        },
        {
          "costume": "xorWall",
          "x": 684,
          "y": 324
        },
        {
          "costume": "xorWall",
          "x": 720,
          "y": 324
        },
        {
          "costume": "xorWall",
          "x": 756,
          "y": 324
        },
        {
          "costume": "xorWall",
          "x": 792,
          "y": 324
        },
        {
          "costume": "xorWall",
          "x": 828,
          "y": 324
        },
        {
          "costume": "xorWall",
          "x": 900,
          "y": 324
        },
        {
          "costume": "xorWall",
          "x": 972,
          "y": 324
        },
        {
          "costume": "xorWall",
          "x": 1044,
          "y": 324
        },
        {
          "costume": "xorWall",
          "x": 1116,
          "y": 324
        },
        {
          "costume": "xorWall",
          "x": 0,
          "y": 288
        },
        {
          "costume": "xorMask",
          "x": 36,
          "y": 288
        },
        {
          "costume": "xorWaves",
          "x": 72,
          "y": 288
        },
        {
          "costume": "xorWall",
          "x": 144,
          "y": 288
        },
        {
          "costume": "xorWall",
          "x": 216,
          "y": 288
        },
        {
          "costume": "xorWall",
          "x": 252,
          "y": 288
        },
        {
          "costume": "xorWaves",
          "x": 288,
          "y": 288
        },
        {
          "costume": "xorMask",
          "x": 504,
          "y": 288
        },
        {
          "costume": "xorWaves",
          "x": 540,
          "y": 288
        },
        {
          "costume": "xorMask",
          "x": 612,
          "y": 288
        },
        {
          "costume": "xorWaves",
          "x": 684,
          "y": 288
        },
        {
          "costume": "xorMask",
          "x": 720,
          "y": 288
        },
        {
          "costume": "xorWall",
          "x": 828,
          "y": 288
        },
        {
          "costume": "xorWall",
          "x": 900,
          "y": 288
        },
        {
          "costume": "xorDots",
          "x": 972,
          "y": 288
        },
        {
          "costume": "xorWall",
          "x": 1044,
          "y": 288
        },
        {
          "costume": "xorWall",
          "x": 1116,
          "y": 288
        },
        {
          "costume": "xorWall",
          "x": 0,
          "y": 252
        },
        {
          "costume": "xorMask",
          "x": 36,
          "y": 252
        },
        {
          "costume": "xorWaves",
          "x": 72,
          "y": 252
        },
        {
          "costume": "xorWall",
          "x": 144,
          "y": 252
        },
        {
          "costume": "xorWall",
          "x": 216,
          "y": 252
        },
        {
          "costume": "xorMask",
          "x": 252,
          "y": 252
        },
        {
          "costume": "xorWaves",
          "x": 288,
          "y": 252
        },
        {
          "costume": "xorWall",
          "x": 360,
          "y": 252
        },
        {
          "costume": "xorWall",
          "x": 396,
          "y": 252
        },
        {
          "costume": "xorWall",
          "x": 432,
          "y": 252
        },
        {
          "costume": "xorWall",
          "x": 468,
          "y": 252
        },
        {
          "costume": "xorWall",
          "x": 504,
          "y": 252
        },
        {
          "costume": "xorWall",
          "x": 540,
          "y": 252
        },
        {
          "costume": "xorWall",
          "x": 576,
          "y": 252
        },
        {
          "costume": "xorWall",
          "x": 612,
          "y": 252
        },
        {
          "costume": "xorWall",
          "x": 648,
          "y": 252
        },
        {
          "costume": "xorWall",
          "x": 684,
          "y": 252
        },
        {
          "costume": "xorWall",
          "x": 720,
          "y": 252
        },
        {
          "costume": "xorWall",
          "x": 756,
          "y": 252
        },
        {
          "costume": "xorWall",
          "x": 828,
          "y": 252
        },
        {
          "costume": "xorMask",
          "x": 864,
          "y": 252
        },
        {
          "costume": "xorWall",
          "x": 900,
          "y": 252
        },
        {
          "costume": "xorWall",
          "x": 972,
          "y": 252
        },
        {
          "costume": "xorWall",
          "x": 1044,
          "y": 252
        },
        {
          "costume": "xorWall",
          "x": 1116,
          "y": 252
        },
        {
          "costume": "xorWall",
          "x": 0,
          "y": 216
        },
        {
          "costume": "xorMask",
          "x": 36,
          "y": 216
        },
        {
          "costume": "xorWaves",
          "x": 72,
          "y": 216
        },
        {
          "costume": "xorWall",
          "x": 144,
          "y": 216
        },
        {
          "costume": "xorWall",
          "x": 216,
          "y": 216
        },
        {
          "costume": "xorWaves",
          "x": 288,
          "y": 216
        },
        {
          "costume": "xorWall",
          "x": 360,
          "y": 216
        },
        {
          "costume": "xorMask",
          "x": 396,
          "y": 216
        },
        {
          "costume": "xorWall",
          "x": 432,
          "y": 216
        },
        {
          "costume": "xorMask",
          "x": 468,
          "y": 216
        },
        {
          "costume": "xorWall",
          "x": 756,
          "y": 216
        },
        {
          "costume": "xorWall",
          "x": 828,
          "y": 216
        },
        {
          "costume": "xorWall",
          "x": 864,
          "y": 216
        },
        {
          "costume": "xorWall",
          "x": 900,
          "y": 216
        },
        {
          "costume": "xorWall",
          "x": 972,
          "y": 216
        },
        {
          "costume": "xorWall",
          "x": 1044,
          "y": 216
        },
        {
          "costume": "xorWall",
          "x": 1116,
          "y": 216
        },
        {
          "costume": "xorWall",
          "x": 0,
          "y": 180
        },
        {
          "costume": "xorMask",
          "x": 36,
          "y": 180
        },
        {
          "costume": "xorWaves",
          "x": 72,
          "y": 180
        },
        {
          "costume": "xorWall",
          "x": 144,
          "y": 180
        },
        {
          "costume": "xorWaves",
          "x": 180,
          "y": 180
        },
        {
          "costume": "xorWall",
          "x": 216,
          "y": 180
        },
        {
          "costume": "xorWaves",
          "x": 288,
          "y": 180
        },
        {
          "costume": "xorWall",
          "x": 360,
          "y": 180
        },
        {
          "costume": "xorWall",
          "x": 432,
          "y": 180
        },
        {
          "costume": "xorWall",
          "x": 468,
          "y": 180
        },
        {
          "costume": "xorWall",
          "x": 504,
          "y": 180
        },
        {
          "costume": "xorDots",
          "x": 540,
          "y": 180
        },
        {
          "costume": "xorDots",
          "x": 576,
          "y": 180
        },
        {
          "costume": "xorDots",
          "x": 612,
          "y": 180
        },
        {
          "costume": "xorDots",
          "x": 648,
          "y": 180
        },
        {
          "costume": "xorWall",
          "x": 684,
          "y": 180
        },
        {
          "costume": "xorWall",
          "x": 756,
          "y": 180
        },
        {
          "costume": "xorWall",
          "x": 828,
          "y": 180
        },
        {
          "costume": "xorMask",
          "x": 864,
          "y": 180
        },
        {
          "costume": "xorWall",
          "x": 900,
          "y": 180
        },
        {
          "costume": "xorWall",
          "x": 972,
          "y": 180
        },
        {
          "costume": "xorWall",
          "x": 1044,
          "y": 180
        },
        {
          "costume": "xorWall",
          "x": 1116,
          "y": 180
        },
        {
          "costume": "xorWall",
          "x": 0,
          "y": 144
        },
        {
          "costume": "xorWaves",
          "x": 36,
          "y": 144
        },
        {
          "costume": "xorWaves",
          "x": 72,
          "y": 144
        },
        {
          "costume": "xorWall",
          "x": 144,
          "y": 144
        },
        {
          "costume": "xorMap",
          "x": 180,
          "y": 144
        },
        {
          "costume": "xorWall",
          "x": 216,
          "y": 144
        },
        {
          "costume": "xorWaves",
          "x": 288,
          "y": 144
        },
        {
          "costume": "xorWall",
          "x": 684,
          "y": 144
        },
        {
          "costume": "xorWall",
          "x": 756,
          "y": 144
        },
        {
          "costume": "xorWall",
          "x": 828,
          "y": 144
        },
        {
          "costume": "xorWall",
          "x": 900,
          "y": 144
        },
        {
          "costume": "xorWall",
          "x": 972,
          "y": 144
        },
        {
          "costume": "xorWall",
          "x": 1044,
          "y": 144
        },
        {
          "costume": "xorPlayer1",
          "x": 1080,
          "y": 144,
          "attributes": [
            {
              "name": "offsetX",
              "value": "0"
            },
            {
              "name": "offsetY",
              "value": "0"
            }
          ]
        },
        {
          "costume": "xorWall",
          "x": 1116,
          "y": 144
        },
        {
          "costume": "xorWall",
          "x": 0,
          "y": 108
        },
        {
          "costume": "xorWall",
          "x": 36,
          "y": 108
        },
        {
          "costume": "xorWall",
          "x": 72,
          "y": 108
        },
        {
          "costume": "xorWall",
          "x": 144,
          "y": 108
        },
        {
          "costume": "xorWaves",
          "x": 180,
          "y": 108
        },
        {
          "costume": "xorWall",
          "x": 216,
          "y": 108
        },
        {
          "costume": "xorWall",
          "x": 288,
          "y": 108
        },
        {
          "costume": "xorWall",
          "x": 360,
          "y": 108
        },
        {
          "costume": "xorWall",
          "x": 432,
          "y": 108
        },
        {
          "costume": "xorMask",
          "x": 468,
          "y": 108
        },
        {
          "costume": "xorWall",
          "x": 504,
          "y": 108
        },
        {
          "costume": "xorWall",
          "x": 540,
          "y": 108
        },
        {
          "costume": "xorWall",
          "x": 612,
          "y": 108
        },
        {
          "costume": "xorWall",
          "x": 684,
          "y": 108
        },
        {
          "costume": "xorWall",
          "x": 756,
          "y": 108
        },
        {
          "costume": "xorWall",
          "x": 828,
          "y": 108
        },
        {
          "costume": "xorWall",
          "x": 900,
          "y": 108
        },
        {
          "costume": "xorWall",
          "x": 972,
          "y": 108
        },
        {
          "costume": "xorWall",
          "x": 1044,
          "y": 108
        },
        {
          "costume": "xorWall",
          "x": 1116,
          "y": 108
        },
        {
          "costume": "xorWall",
          "x": 0,
          "y": 72
        },
        {
          "costume": "xorMask",
          "x": 36,
          "y": 72
        },
        {
          "costume": "xorWall",
          "x": 72,
          "y": 72
        },
        {
          "costume": "xorWall",
          "x": 144,
          "y": 72
        },
        {
          "costume": "xorWaves",
          "x": 180,
          "y": 72
        },
        {
          "costume": "xorWall",
          "x": 216,
          "y": 72
        },
        {
          "costume": "xorWall",
          "x": 288,
          "y": 72
        },
        {
          "costume": "xorWall",
          "x": 360,
          "y": 72
        },
        {
          "costume": "xorWall",
          "x": 432,
          "y": 72
        },
        {
          "costume": "xorWall",
          "x": 468,
          "y": 72
        },
        {
          "costume": "xorWall",
          "x": 504,
          "y": 72
        },
        {
          "costume": "xorMask",
          "x": 540,
          "y": 72
        },
        {
          "costume": "xorMask",
          "x": 576,
          "y": 72
        },
        {
          "costume": "xorWaves",
          "x": 612,
          "y": 72
        },
        {
          "costume": "xorWaves",
          "x": 684,
          "y": 72
        },
        {
          "costume": "xorWaves",
          "x": 828,
          "y": 72
        },
        {
          "costume": "xorWaves",
          "x": 972,
          "y": 72
        },
        {
          "costume": "xorWaves",
          "x": 1044,
          "y": 72
        },
        {
          "costume": "xorWall",
          "x": 1116,
          "y": 72
        },
        {
          "costume": "xorWall",
          "x": 0,
          "y": 36
        },
        {
          "costume": "xorWall",
          "x": 72,
          "y": 36
        },
        {
          "costume": "xorWall",
          "x": 144,
          "y": 36
        },
        {
          "costume": "xorWall",
          "x": 216,
          "y": 36
        },
        {
          "costume": "xorWall",
          "x": 288,
          "y": 36
        },
        {
          "costume": "xorWall",
          "x": 360,
          "y": 36
        },
        {
          "costume": "xorMask",
          "x": 396,
          "y": 36
        },
        {
          "costume": "xorWall",
          "x": 432,
          "y": 36
        },
        {
          "costume": "xorMask",
          "x": 468,
          "y": 36
        },
        {
          "costume": "xorWall",
          "x": 504,
          "y": 36
        },
        {
          "costume": "xorExit",
          "x": 540,
          "y": 36,
          "attributes": [
            {
              "name": "scene",
              "value": "xor/hub"
            }
          ]
        },
        {
          "costume": "xorMask",
          "x": 576,
          "y": 36
        },
        {
          "costume": "xorWall",
          "x": 612,
          "y": 36
        },
        {
          "costume": "xorWall",
          "x": 684,
          "y": 36
        },
        {
          "costume": "xorWall",
          "x": 756,
          "y": 36
        },
        {
          "costume": "xorWall",
          "x": 828,
          "y": 36
        },
        {
          "costume": "xorWall",
          "x": 900,
          "y": 36
        },
        {
          "costume": "xorWall",
          "x": 972,
          "y": 36
        },
        {
          "costume": "xorWall",
          "x": 1044,
          "y": 36
        },
        {
          "costume": "xorWall",
          "x": 1116,
          "y": 36
        },
        {
          "costume": "xorWall",
          "x": 0,
          "y": 0
        },
        {
          "costume": "xorWall",
          "x": 72,
          "y": 0
        },
        {
          "costume": "xorWall",
          "x": 144,
          "y": 0
        },
        {
          "costume": "xorWall",
          "x": 216,
          "y": 0
        },
        {
          "costume": "xorWall",
          "x": 288,
          "y": 0
        },
        {
          "costume": "xorWall",
          "x": 360,
          "y": 0
        },
        {
          "costume": "xorWall",
          "x": 396,
          "y": 0
        },
        {
          "costume": "xorWall",
          "x": 432,
          "y": 0
        },
        {
          "costume": "xorWall",
          "x": 504,
          "y": 0
        },
        {
          "costume": "xorWall",
          "x": 540,
          "y": 0
        },
        {
          "costume": "xorWall",
          "x": 576,
          "y": 0
        },
        {
          "costume": "xorWall",
          "x": 612,
          "y": 0
        },
        {
          "costume": "xorWall",
          "x": 684,
          "y": 0
        },
        {
          "costume": "xorWall",
          "x": 756,
          "y": 0
        },
        {
          "costume": "xorWall",
          "x": 828,
          "y": 0
        },
        {
          "costume": "xorWall",
          "x": 900,
          "y": 0
        },
        {
          "costume": "xorWall",
          "x": 972,
          "y": 0
        },
        {
          "costume": "xorWall",
          "x": 1044,
          "y": 0
        },
        {
          "costume": "xorWall",
          "x": 1116,
          "y": 0
        },
        {
          "costume": "xorWall",
          "x": 0,
          "y": -36
        },
        {
          "costume": "xorMask",
          "x": 36,
          "y": -36
        },
        {
          "costume": "xorWall",
          "x": 72,
          "y": -36
        },
        {
          "costume": "xorWall",
          "x": 144,
          "y": -36
        },
        {
          "costume": "xorWall",
          "x": 216,
          "y": -36
        },
        {
          "costume": "xorWall",
          "x": 360,
          "y": -36
        },
        {
          "costume": "xorWall",
          "x": 684,
          "y": -36
        },
        {
          "costume": "xorWall",
          "x": 756,
          "y": -36
        },
        {
          "costume": "xorWall",
          "x": 828,
          "y": -36
        },
        {
          "costume": "xorWall",
          "x": 900,
          "y": -36
        },
        {
          "costume": "xorWall",
          "x": 972,
          "y": -36
        },
        {
          "costume": "xorWall",
          "x": 1044,
          "y": -36
        },
        {
          "costume": "xorWall",
          "x": 1116,
          "y": -36
        },
        {
          "costume": "xorWall",
          "x": 0,
          "y": -72
        },
        {
          "costume": "xorWall",
          "x": 72,
          "y": -72
        },
        {
          "costume": "xorWall",
          "x": 144,
          "y": -72
        },
        {
          "costume": "xorWall",
          "x": 216,
          "y": -72
        },
        {
          "costume": "xorWall",
          "x": 288,
          "y": -72
        },
        {
          "costume": "xorWall",
          "x": 324,
          "y": -72
        },
        {
          "costume": "xorWall",
          "x": 360,
          "y": -72
        },
        {
          "costume": "xorWall",
          "x": 432,
          "y": -72
        },
        {
          "costume": "xorWall",
          "x": 468,
          "y": -72
        },
        {
          "costume": "xorWall",
          "x": 504,
          "y": -72
        },
        {
          "costume": "xorWall",
          "x": 540,
          "y": -72
        },
        {
          "costume": "xorWall",
          "x": 576,
          "y": -72
        },
        {
          "costume": "xorDots",
          "x": 612,
          "y": -72
        },
        {
          "costume": "xorWall",
          "x": 648,
          "y": -72
        },
        {
          "costume": "xorWall",
          "x": 684,
          "y": -72
        },
        {
          "costume": "xorWall",
          "x": 756,
          "y": -72
        },
        {
          "costume": "xorWall",
          "x": 828,
          "y": -72
        },
        {
          "costume": "xorWall",
          "x": 900,
          "y": -72
        },
        {
          "costume": "xorMask",
          "x": 936,
          "y": -72
        },
        {
          "costume": "xorWall",
          "x": 972,
          "y": -72
        },
        {
          "costume": "xorWall",
          "x": 1044,
          "y": -72
        },
        {
          "costume": "xorWall",
          "x": 1116,
          "y": -72
        },
        {
          "costume": "xorWall",
          "x": 0,
          "y": -108
        },
        {
          "costume": "xorWall",
          "x": 72,
          "y": -108
        },
        {
          "costume": "xorWall",
          "x": 144,
          "y": -108
        },
        {
          "costume": "xorWall",
          "x": 216,
          "y": -108
        },
        {
          "costume": "xorWall",
          "x": 288,
          "y": -108
        },
        {
          "costume": "xorMask",
          "x": 324,
          "y": -108
        },
        {
          "costume": "xorWaves",
          "x": 360,
          "y": -108
        },
        {
          "costume": "xorWall",
          "x": 432,
          "y": -108
        },
        {
          "costume": "xorMask",
          "x": 720,
          "y": -108
        },
        {
          "costume": "xorWall",
          "x": 756,
          "y": -108
        },
        {
          "costume": "xorWall",
          "x": 828,
          "y": -108
        },
        {
          "costume": "xorWall",
          "x": 900,
          "y": -108
        },
        {
          "costume": "xorWall",
          "x": 936,
          "y": -108
        },
        {
          "costume": "xorWall",
          "x": 972,
          "y": -108
        },
        {
          "costume": "xorWall",
          "x": 1044,
          "y": -108
        },
        {
          "costume": "xorWall",
          "x": 1116,
          "y": -108
        },
        {
          "costume": "xorWall",
          "x": 0,
          "y": -144
        },
        {
          "costume": "xorMask",
          "x": 36,
          "y": -144
        },
        {
          "costume": "xorWall",
          "x": 72,
          "y": -144
        },
        {
          "costume": "xorWall",
          "x": 144,
          "y": -144
        },
        {
          "costume": "xorWall",
          "x": 216,
          "y": -144
        },
        {
          "costume": "xorMask",
          "x": 324,
          "y": -144
        },
        {
          "costume": "xorWaves",
          "x": 360,
          "y": -144
        },
        {
          "costume": "xorWall",
          "x": 432,
          "y": -144
        },
        {
          "costume": "xorDots",
          "x": 468,
          "y": -144
        },
        {
          "costume": "xorWaves",
          "x": 504,
          "y": -144
        },
        {
          "costume": "xorDots",
          "x": 540,
          "y": -144
        },
        {
          "costume": "xorWall",
          "x": 576,
          "y": -144
        },
        {
          "costume": "xorWall",
          "x": 612,
          "y": -144
        },
        {
          "costume": "xorWall",
          "x": 648,
          "y": -144
        },
        {
          "costume": "xorWall",
          "x": 684,
          "y": -144
        },
        {
          "costume": "xorWall",
          "x": 720,
          "y": -144
        },
        {
          "costume": "xorWall",
          "x": 756,
          "y": -144
        },
        {
          "costume": "xorWall",
          "x": 828,
          "y": -144
        },
        {
          "costume": "xorWall",
          "x": 900,
          "y": -144
        },
        {
          "costume": "xorMask",
          "x": 936,
          "y": -144
        },
        {
          "costume": "xorWall",
          "x": 972,
          "y": -144
        },
        {
          "costume": "xorWall",
          "x": 1044,
          "y": -144
        },
        {
          "costume": "xorWall",
          "x": 1116,
          "y": -144
        },
        {
          "costume": "xorWall",
          "x": 0,
          "y": -180
        },
        {
          "costume": "xorWall",
          "x": 72,
          "y": -180
        },
        {
          "costume": "xorDots",
          "x": 144,
          "y": -180
        },
        {
          "costume": "xorWall",
          "x": 216,
          "y": -180
        },
        {
          "costume": "xorWall",
          "x": 288,
          "y": -180
        },
        {
          "costume": "xorMask",
          "x": 324,
          "y": -180
        },
        {
          "costume": "xorWaves",
          "x": 360,
          "y": -180
        },
        {
          "costume": "xorDots",
          "x": 432,
          "y": -180
        },
        {
          "costume": "xorDots",
          "x": 468,
          "y": -180
        },
        {
          "costume": "xorWaves",
          "x": 504,
          "y": -180
        },
        {
          "costume": "xorWaves",
          "x": 540,
          "y": -180
        },
        {
          "costume": "xorWall",
          "x": 576,
          "y": -180
        },
        {
          "costume": "xorMask",
          "x": 612,
          "y": -180
        },
        {
          "costume": "xorWall",
          "x": 900,
          "y": -180
        },
        {
          "costume": "xorWall",
          "x": 972,
          "y": -180
        },
        {
          "costume": "xorWall",
          "x": 1044,
          "y": -180
        },
        {
          "costume": "xorWall",
          "x": 1116,
          "y": -180
        },
        {
          "costume": "xorWall",
          "x": 0,
          "y": -216
        },
        {
          "costume": "xorWall",
          "x": 72,
          "y": -216
        },
        {
          "costume": "xorWall",
          "x": 108,
          "y": -216
        },
        {
          "costume": "xorWall",
          "x": 144,
          "y": -216
        },
        {
          "costume": "xorWall",
          "x": 216,
          "y": -216
        },
        {
          "costume": "xorWall",
          "x": 288,
          "y": -216
        },
        {
          "costume": "xorWall",
          "x": 324,
          "y": -216
        },
        {
          "costume": "xorWall",
          "x": 360,
          "y": -216
        },
        {
          "costume": "xorWall",
          "x": 396,
          "y": -216
        },
        {
          "costume": "xorWall",
          "x": 432,
          "y": -216
        },
        {
          "costume": "xorWaves",
          "x": 468,
          "y": -216
        },
        {
          "costume": "xorDots",
          "x": 504,
          "y": -216
        },
        {
          "costume": "xorDots",
          "x": 540,
          "y": -216
        },
        {
          "costume": "xorWall",
          "x": 576,
          "y": -216
        },
        {
          "costume": "xorWall",
          "x": 612,
          "y": -216
        },
        {
          "costume": "xorWall",
          "x": 648,
          "y": -216
        },
        {
          "costume": "xorWall",
          "x": 684,
          "y": -216
        },
        {
          "costume": "xorWall",
          "x": 720,
          "y": -216
        },
        {
          "costume": "xorWall",
          "x": 756,
          "y": -216
        },
        {
          "costume": "xorWall",
          "x": 792,
          "y": -216
        },
        {
          "costume": "xorWall",
          "x": 828,
          "y": -216
        },
        {
          "costume": "xorWall",
          "x": 900,
          "y": -216
        },
        {
          "costume": "xorWall",
          "x": 972,
          "y": -216
        },
        {
          "costume": "xorWall",
          "x": 1044,
          "y": -216
        },
        {
          "costume": "xorWall",
          "x": 1116,
          "y": -216
        },
        {
          "costume": "xorWall",
          "x": 0,
          "y": -252
        },
        {
          "costume": "xorWall",
          "x": 72,
          "y": -252
        },
        {
          "costume": "xorMask",
          "x": 108,
          "y": -252
        },
        {
          "costume": "xorWall",
          "x": 144,
          "y": -252
        },
        {
          "costume": "xorWaves",
          "x": 180,
          "y": -252
        },
        {
          "costume": "xorWall",
          "x": 216,
          "y": -252
        },
        {
          "costume": "xorDots",
          "x": 360,
          "y": -252
        },
        {
          "costume": "xorMask",
          "x": 396,
          "y": -252
        },
        {
          "costume": "xorWall",
          "x": 432,
          "y": -252
        },
        {
          "costume": "xorDots",
          "x": 468,
          "y": -252
        },
        {
          "costume": "xorDots",
          "x": 504,
          "y": -252
        },
        {
          "costume": "xorWaves",
          "x": 540,
          "y": -252
        },
        {
          "costume": "xorMask",
          "x": 576,
          "y": -252
        },
        {
          "costume": "xorWall",
          "x": 612,
          "y": -252
        },
        {
          "costume": "xorMask",
          "x": 648,
          "y": -252
        },
        {
          "costume": "xorDots",
          "x": 684,
          "y": -252
        },
        {
          "costume": "xorWall",
          "x": 900,
          "y": -252
        },
        {
          "costume": "xorWall",
          "x": 972,
          "y": -252
        },
        {
          "costume": "xorMask",
          "x": 1008,
          "y": -252
        },
        {
          "costume": "xorWall",
          "x": 1044,
          "y": -252
        },
        {
          "costume": "xorWall",
          "x": 1116,
          "y": -252
        },
        {
          "costume": "xorWall",
          "x": 0,
          "y": -288
        },
        {
          "costume": "xorWall",
          "x": 72,
          "y": -288
        },
        {
          "costume": "xorMask",
          "x": 108,
          "y": -288
        },
        {
          "costume": "xorWall",
          "x": 144,
          "y": -288
        },
        {
          "costume": "xorWaves",
          "x": 180,
          "y": -288
        },
        {
          "costume": "xorWall",
          "x": 216,
          "y": -288
        },
        {
          "costume": "xorWall",
          "x": 252,
          "y": -288
        },
        {
          "costume": "xorWall",
          "x": 288,
          "y": -288
        },
        {
          "costume": "xorWaves",
          "x": 324,
          "y": -288
        },
        {
          "costume": "xorWall",
          "x": 360,
          "y": -288
        },
        {
          "costume": "xorWall",
          "x": 396,
          "y": -288
        },
        {
          "costume": "xorWall",
          "x": 432,
          "y": -288
        },
        {
          "costume": "xorWall",
          "x": 468,
          "y": -288
        },
        {
          "costume": "xorWall",
          "x": 504,
          "y": -288
        },
        {
          "costume": "xorWall",
          "x": 540,
          "y": -288
        },
        {
          "costume": "xorWall",
          "x": 576,
          "y": -288
        },
        {
          "costume": "xorWall",
          "x": 612,
          "y": -288
        },
        {
          "costume": "xorWall",
          "x": 648,
          "y": -288
        },
        {
          "costume": "xorWall",
          "x": 684,
          "y": -288
        },
        {
          "costume": "xorWall",
          "x": 720,
          "y": -288
        },
        {
          "costume": "xorWall",
          "x": 756,
          "y": -288
        },
        {
          "costume": "xorWall",
          "x": 792,
          "y": -288
        },
        {
          "costume": "xorWall",
          "x": 828,
          "y": -288
        },
        {
          "costume": "xorWaves",
          "x": 864,
          "y": -288
        },
        {
          "costume": "xorWall",
          "x": 900,
          "y": -288
        },
        {
          "costume": "xorWall",
          "x": 972,
          "y": -288
        },
        {
          "costume": "xorWall",
          "x": 1008,
          "y": -288
        },
        {
          "costume": "xorWall",
          "x": 1044,
          "y": -288
        },
        {
          "costume": "xorWall",
          "x": 1116,
          "y": -288
        },
        {
          "costume": "xorWall",
          "x": 0,
          "y": -324
        },
        {
          "costume": "xorWall",
          "x": 72,
          "y": -324
        },
        {
          "costume": "xorWall",
          "x": 144,
          "y": -324
        },
        {
          "costume": "xorMask",
          "x": 180,
          "y": -324
        },
        {
          "costume": "xorWall",
          "x": 216,
          "y": -324
        },
        {
          "costume": "xorMask",
          "x": 252,
          "y": -324
        },
        {
          "costume": "xorMask",
          "x": 288,
          "y": -324
        },
        {
          "costume": "xorWaves",
          "x": 324,
          "y": -324
        },
        {
          "costume": "xorWaves",
          "x": 360,
          "y": -324
        },
        {
          "costume": "xorWall",
          "x": 972,
          "y": -324
        },
        {
          "costume": "xorMask",
          "x": 1008,
          "y": -324
        },
        {
          "costume": "xorWall",
          "x": 1116,
          "y": -324
        },
        {
          "costume": "xorWall",
          "x": 0,
          "y": -360
        },
        {
          "costume": "xorDots",
          "x": 72,
          "y": -360
        },
        {
          "costume": "xorWall",
          "x": 144,
          "y": -360
        },
        {
          "costume": "xorWall",
          "x": 180,
          "y": -360
        },
        {
          "costume": "xorWall",
          "x": 216,
          "y": -360
        },
        {
          "costume": "xorWall",
          "x": 252,
          "y": -360
        },
        {
          "costume": "xorWall",
          "x": 288,
          "y": -360
        },
        {
          "costume": "xorWall",
          "x": 324,
          "y": -360
        },
        {
          "costume": "xorWall",
          "x": 360,
          "y": -360
        },
        {
          "costume": "xorWall",
          "x": 432,
          "y": -360
        },
        {
          "costume": "xorWall",
          "x": 468,
          "y": -360
        },
        {
          "costume": "xorWall",
          "x": 504,
          "y": -360
        },
        {
          "costume": "xorWall",
          "x": 540,
          "y": -360
        },
        {
          "costume": "xorWall",
          "x": 576,
          "y": -360
        },
        {
          "costume": "xorWall",
          "x": 612,
          "y": -360
        },
        {
          "costume": "xorWall",
          "x": 648,
          "y": -360
        },
        {
          "costume": "xorWall",
          "x": 684,
          "y": -360
        },
        {
          "costume": "xorWall",
          "x": 720,
          "y": -360
        },
        {
          "costume": "xorWall",
          "x": 756,
          "y": -360
        },
        {
          "costume": "xorWall",
          "x": 792,
          "y": -360
        },
        {
          "costume": "xorWall",
          "x": 828,
          "y": -360
        },
        {
          "costume": "xorDots",
          "x": 864,
          "y": -360
        },
        {
          "costume": "xorWall",
          "x": 900,
          "y": -360
        },
        {
          "costume": "xorWall",
          "x": 936,
          "y": -360
        },
        {
          "costume": "xorWall",
          "x": 972,
          "y": -360
        },
        {
          "costume": "xorWall",
          "x": 1116,
          "y": -360
        },
        {
          "costume": "xorWall",
          "x": 0,
          "y": -396
        },
        {
          "costume": "xorWall",
          "x": 72,
          "y": -396
        },
        {
          "costume": "xorDots",
          "x": 108,
          "y": -396
        },
        {
          "costume": "xorDots",
          "x": 828,
          "y": -396
        },
        {
          "costume": "xorMask",
          "x": 864,
          "y": -396
        },
        {
          "costume": "xorWall",
          "x": 900,
          "y": -396
        },
        {
          "costume": "xorMask",
          "x": 936,
          "y": -396
        },
        {
          "costume": "xorWall",
          "x": 1116,
          "y": -396
        },
        {
          "costume": "xorWall",
          "x": 0,
          "y": -432
        },
        {
          "costume": "xorWall",
          "x": 72,
          "y": -432
        },
        {
          "costume": "xorWall",
          "x": 108,
          "y": -432
        },
        {
          "costume": "xorDots",
          "x": 144,
          "y": -432
        },
        {
          "costume": "xorWall",
          "x": 180,
          "y": -432
        },
        {
          "costume": "xorWall",
          "x": 216,
          "y": -432
        },
        {
          "costume": "xorWall",
          "x": 252,
          "y": -432
        },
        {
          "costume": "xorWall",
          "x": 288,
          "y": -432
        },
        {
          "costume": "xorWall",
          "x": 324,
          "y": -432
        },
        {
          "costume": "xorWall",
          "x": 360,
          "y": -432
        },
        {
          "costume": "xorWall",
          "x": 396,
          "y": -432
        },
        {
          "costume": "xorDots",
          "x": 432,
          "y": -432
        },
        {
          "costume": "xorDots",
          "x": 468,
          "y": -432
        },
        {
          "costume": "xorDots",
          "x": 504,
          "y": -432
        },
        {
          "costume": "xorDots",
          "x": 540,
          "y": -432
        },
        {
          "costume": "xorDots",
          "x": 576,
          "y": -432
        },
        {
          "costume": "xorDots",
          "x": 612,
          "y": -432
        },
        {
          "costume": "xorDots",
          "x": 648,
          "y": -432
        },
        {
          "costume": "xorDots",
          "x": 684,
          "y": -432
        },
        {
          "costume": "xorDots",
          "x": 720,
          "y": -432
        },
        {
          "costume": "xorWall",
          "x": 756,
          "y": -432
        },
        {
          "costume": "xorWall",
          "x": 792,
          "y": -432
        },
        {
          "costume": "xorWall",
          "x": 828,
          "y": -432
        },
        {
          "costume": "xorWall",
          "x": 864,
          "y": -432
        },
        {
          "costume": "xorWall",
          "x": 900,
          "y": -432
        },
        {
          "costume": "xorMap",
          "x": 1044,
          "y": -432
        },
        {
          "costume": "xorDots",
          "x": 1080,
          "y": -432
        },
        {
          "costume": "xorWall",
          "x": 1116,
          "y": -432
        },
        {
          "costume": "xorWall",
          "x": 0,
          "y": -468
        },
        {
          "costume": "xorWaves",
          "x": 1044,
          "y": -468
        },
        {
          "costume": "xorMask",
          "x": 1080,
          "y": -468
        },
        {
          "costume": "xorWall",
          "x": 1116,
          "y": -468
        },
        {
          "costume": "xorWall",
          "x": 0,
          "y": -504
        },
        {
          "costume": "xorWall",
          "x": 36,
          "y": -504
        },
        {
          "costume": "xorWall",
          "x": 72,
          "y": -504
        },
        {
          "costume": "xorWall",
          "x": 108,
          "y": -504
        },
        {
          "costume": "xorWall",
          "x": 144,
          "y": -504
        },
        {
          "costume": "xorWall",
          "x": 180,
          "y": -504
        },
        {
          "costume": "xorWall",
          "x": 216,
          "y": -504
        },
        {
          "costume": "xorWall",
          "x": 252,
          "y": -504
        },
        {
          "costume": "xorWall",
          "x": 288,
          "y": -504
        },
        {
          "costume": "xorWall",
          "x": 324,
          "y": -504
        },
        {
          "costume": "xorWall",
          "x": 360,
          "y": -504
        },
        {
          "costume": "xorWall",
          "x": 396,
          "y": -504
        },
        {
          "costume": "xorWall",
          "x": 432,
          "y": -504
        },
        {
          "costume": "xorWall",
          "x": 468,
          "y": -504
        },
        {
          "costume": "xorWall",
          "x": 504,
          "y": -504
        },
        {
          "costume": "xorWall",
          "x": 540,
          "y": -504
        },
        {
          "costume": "xorWall",
          "x": 576,
          "y": -504
        },
        {
          "costume": "xorWall",
          "x": 612,
          "y": -504
        },
        {
          "costume": "xorWall",
          "x": 648,
          "y": -504
        },
        {
          "costume": "xorWall",
          "x": 684,
          "y": -504
        },
        {
          "costume": "xorWall",
          "x": 720,
          "y": -504
        },
        {
          "costume": "xorWall",
          "x": 756,
          "y": -504
        },
        {
          "costume": "xorWall",
          "x": 792,
          "y": -504
        },
        {
          "costume": "xorWall",
          "x": 828,
          "y": -504
        },
        {
          "costume": "xorWall",
          "x": 864,
          "y": -504
        },
        {
          "costume": "xorWall",
          "x": 900,
          "y": -504
        },
        {
          "costume": "xorWall",
          "x": 936,
          "y": -504
        },
        {
          "costume": "xorWall",
          "x": 972,
          "y": -504
        },
        {
          "costume": "xorWall",
          "x": 1008,
          "y": -504
        },
        {
          "costume": "xorWall",
          "x": 1044,
          "y": -504
        },
        {
          "costume": "xorWall",
          "x": 1080,
          "y": -504
        },
        {
          "costume": "xorWall",
          "x": 1116,
          "y": -504
        }
      ]
    }
  ]
}