{
  "director": "PlayDirector",
  "directorAttributes": [
    {
      "name": "cheatInstructions",
      "value": ""
    },
    {
      "name": "sceneTitle",
      "value": "Put the Rock on the Chair"
    }
  ],
  "background": "#000000",
  "showMouse": true,
  "layout": "default",
  "snapToGrid": {
    "enabled": false,
    "xSpacing": 50,
    "ySpacing": 50,
    "xOffset": 0,
    "yOffset": 0,
    "xCloseness": 10,
    "yCloseness": 10
  },
  "snapToGuides": {
    "enabled": true,
    "closeness": 5,
    "x": [
      
    ],
    "y": [
      
    ]
  },
  "snapToOthers": {
    "enabled": true,
    "xCloseness": 10,
    "yCloseness": 10
  },
  "snapRotation": {
    "enabled": true,
    "step": 15,
    "closeness": 15
  },
  "include": [
    
  ],
  "stages": [
    {
      "name": "main",
      "actors": [
        {
          "costume": "wall",
          "x": 0,
          "y": 540
        },
        {
          "costume": "wall",
          "x": 0,
          "y": 780
        },
        {
          "costume": "wall",
          "x": -60,
          "y": 600
        },
        {
          "costume": "wall",
          "x": -60,
          "y": 660
        },
        {
          "costume": "wall",
          "x": 180,
          "y": 720
        },
        {
          "costume": "wall",
          "x": 60,
          "y": 780
        },
        {
          "costume": "wall",
          "x": 240,
          "y": 720
        },
        {
          "costume": "wall",
          "x": 300,
          "y": 720
        },
        {
          "costume": "wall",
          "x": 360,
          "y": 720
        },
        {
          "costume": "wall",
          "x": 420,
          "y": 720
        },
        {
          "costume": "wall",
          "x": 480,
          "y": 720
        },
        {
          "costume": "wall",
          "x": 540,
          "y": 720
        },
        {
          "costume": "wall",
          "x": 600,
          "y": 720
        },
        {
          "costume": "wall",
          "x": 840,
          "y": 0
        },
        {
          "costume": "wall",
          "x": 780,
          "y": 0
        },
        {
          "costume": "wall",
          "x": 720,
          "y": 0
        },
        {
          "costume": "wall",
          "x": 0,
          "y": 480
        },
        {
          "costume": "wall",
          "x": 0,
          "y": 420
        },
        {
          "costume": "wall",
          "x": 0,
          "y": 360
        },
        {
          "costume": "wall",
          "x": 0,
          "y": 300
        },
        {
          "costume": "wall",
          "x": 0,
          "y": 240
        },
        {
          "costume": "wall",
          "x": 0,
          "y": 180
        },
        {
          "costume": "wall",
          "x": 180,
          "y": 0
        },
        {
          "costume": "wall",
          "x": 240,
          "y": 0
        },
        {
          "costume": "wall",
          "x": 300,
          "y": 0
        },
        {
          "costume": "wall",
          "x": 360,
          "y": 0
        },
        {
          "costume": "wall",
          "x": 420,
          "y": -60
        },
        {
          "costume": "wall",
          "x": 540,
          "y": -60
        },
        {
          "costume": "wall",
          "x": 600,
          "y": -60
        },
        {
          "costume": "wallSE",
          "x": 900,
          "y": 0
        },
        {
          "costume": "wallNW",
          "x": -60,
          "y": 780
        },
        {
          "costume": "wall",
          "x": 660,
          "y": 720
        },
        {
          "costume": "wall",
          "x": 720,
          "y": 720
        },
        {
          "costume": "wall",
          "x": 780,
          "y": 720
        },
        {
          "costume": "wall",
          "x": 900,
          "y": 660
        },
        {
          "costume": "wall",
          "x": 900,
          "y": 600
        },
        {
          "costume": "wall",
          "x": 900,
          "y": 540
        },
        {
          "costume": "wall",
          "x": 900,
          "y": 480
        },
        {
          "costume": "wall",
          "x": 900,
          "y": 420
        },
        {
          "costume": "wall",
          "x": 900,
          "y": 360
        },
        {
          "costume": "wall",
          "x": 900,
          "y": 300
        },
        {
          "costume": "wall",
          "x": 840,
          "y": 720
        },
        {
          "costume": "wallNE",
          "x": 900,
          "y": 720
        },
        {
          "costume": "wall",
          "x": 900,
          "y": 60
        },
        {
          "costume": "wall",
          "x": 900,
          "y": 120
        },
        {
          "costume": "wall",
          "x": 900,
          "y": 180
        },
        {
          "costume": "wall",
          "x": 900,
          "y": 240
        },
        {
          "costume": "wall",
          "x": 480,
          "y": 0
        },
        {
          "costume": "wall",
          "x": 240,
          "y": 540
        },
        {
          "costume": "wall",
          "x": 60,
          "y": 540
        },
        {
          "costume": "wall",
          "x": 120,
          "y": 540
        },
        {
          "costume": "wall",
          "x": 180,
          "y": 540
        },
        {
          "costume": "wall",
          "x": 180,
          "y": 660
        },
        {
          "costume": "wall",
          "x": 360,
          "y": 420
        },
        {
          "costume": "wall",
          "x": 480,
          "y": 420
        },
        {
          "costume": "wall",
          "x": 540,
          "y": 480
        },
        {
          "costume": "wall",
          "x": 480,
          "y": 480
        },
        {
          "costume": "wall",
          "x": 660,
          "y": 420
        },
        {
          "costume": "wall",
          "x": 720,
          "y": 420
        },
        {
          "costume": "wall",
          "x": 600,
          "y": 420
        },
        {
          "costume": "wall",
          "x": 780,
          "y": 660
        },
        {
          "costume": "wall",
          "x": 780,
          "y": 600
        },
        {
          "costume": "wall",
          "x": 780,
          "y": 540
        },
        {
          "costume": "wall",
          "x": 780,
          "y": 480
        },
        {
          "costume": "wall",
          "x": 300,
          "y": 540
        },
        {
          "costume": "wall",
          "x": 360,
          "y": 540
        },
        {
          "costume": "wall",
          "x": 360,
          "y": 480
        },
        {
          "costume": "wall",
          "x": 540,
          "y": 420
        },
        {
          "costume": "wall",
          "x": 780,
          "y": 420
        },
        {
          "costume": "wallNE",
          "x": 480,
          "y": 60
        },
        {
          "costume": "wallSW",
          "x": 360,
          "y": -180
        },
        {
          "costume": "wall",
          "x": 360,
          "y": -120
        },
        {
          "costume": "wall",
          "x": 480,
          "y": -60
        },
        {
          "costume": "wall",
          "x": 420,
          "y": -180
        },
        {
          "costume": "wallSE",
          "x": 480,
          "y": -180
        },
        {
          "costume": "wallNW",
          "x": 360,
          "y": 60
        },
        {
          "costume": "wall",
          "x": 60,
          "y": 360
        },
        {
          "costume": "wall",
          "x": 600,
          "y": 240
        },
        {
          "costume": "wall",
          "x": 420,
          "y": 360
        },
        {
          "costume": "wallNE",
          "x": 120,
          "y": 360
        },
        {
          "costume": "wall",
          "x": 480,
          "y": -120
        },
        {
          "costume": "wall",
          "x": 360,
          "y": -60
        },
        {
          "costume": "wallSE",
          "x": 660,
          "y": -60
        },
        {
          "costume": "wallNW",
          "x": 660,
          "y": 0
        },
        {
          "costume": "wall",
          "x": 600,
          "y": 120
        },
        {
          "costume": "wallNE",
          "x": 120,
          "y": 60
        },
        {
          "costume": "wallSW",
          "x": 60,
          "y": 60
        },
        {
          "costume": "wallNE",
          "x": 60,
          "y": 120
        },
        {
          "costume": "wallSW",
          "x": 0,
          "y": 120
        },
        {
          "costume": "wallSW",
          "x": 120,
          "y": 0
        },
        {
          "costume": "wallSW",
          "x": -60,
          "y": 540
        },
        {
          "costume": "wall",
          "x": 120,
          "y": 780
        },
        {
          "costume": "wall",
          "x": -60,
          "y": 720
        },
        {
          "costume": "wallNE",
          "x": 180,
          "y": 780
        },
        {
          "costume": "info",
          "x": 60,
          "y": 600,
          "attributes": [
            {
              "name": "text",
              "value": "Oh look, a chair with wheels."
            },
            {
              "name": "visible",
              "value": "false"
            }
          ]
        },
        {
          "costume": "info",
          "x": 420,
          "y": 60,
          "attributes": [
            {
              "name": "text",
              "value": "That grenade needs to go\ndown this shaft. How do we\nget the chair in the correct\nposition?"
            },
            {
              "name": "visible",
              "value": "true"
            }
          ]
        },
        {
          "costume": "chair",
          "x": 120,
          "y": 600
        },
        {
          "costume": "grenade",
          "x": 540,
          "y": 660
        },
        {
          "costume": "rock",
          "x": 660,
          "y": 660
        },
        {
          "costume": "rock",
          "x": 300,
          "y": 420
        },
        {
          "costume": "grenade2",
          "x": 600,
          "y": 180
        },
        {
          "costume": "chair",
          "x": 240,
          "y": 240
        },
        {
          "costume": "rock",
          "x": 120,
          "y": 420
        },
        {
          "costume": "rock",
          "x": 60,
          "y": 420
        },
        {
          "costume": "rock",
          "x": 60,
          "y": 480
        },
        {
          "costume": "rock",
          "x": 120,
          "y": 480
        },
        {
          "costume": "gateCompleted",
          "x": 420,
          "y": -120,
          "attributes": [
            {
              "name": "scene",
              "value": "hub"
            }
          ]
        },
        {
          "costume": "stamp",
          "x": 540,
          "y": 600
        },
        {
          "costume": "stamp",
          "x": 660,
          "y": 600
        },
        {
          "costume": "stamp",
          "x": 240,
          "y": 660
        },
        {
          "costume": "stamp",
          "x": 300,
          "y": 660
        },
        {
          "costume": "stamp",
          "x": 300,
          "y": 360
        },
        {
          "costume": "stamp",
          "x": 240,
          "y": 360
        },
        {
          "costume": "stamp",
          "x": 240,
          "y": 420
        },
        {
          "costume": "stamp",
          "x": 180,
          "y": 420
        },
        {
          "costume": "stamp",
          "x": 180,
          "y": 480
        },
        {
          "costume": "stamp",
          "x": 240,
          "y": 480
        },
        {
          "costume": "stamp",
          "x": 120,
          "y": 660
        },
        {
          "costume": "burton",
          "x": 0,
          "y": 600,
          "attributes": [
            {
              "name": "offsetX",
              "value": "0"
            },
            {
              "name": "offsetY",
              "value": "0"
            }
          ]
        },
        {
          "costume": "info",
          "x": 540,
          "y": 120,
          "attributes": [
            {
              "name": "text",
              "value": "We need the chair right here!"
            },
            {
              "name": "visible",
              "value": "false"
            }
          ]
        },
        {
          "costume": "info",
          "x": 480,
          "y": 120,
          "attributes": [
            {
              "name": "text",
              "value": "If we got the chair here,\nwe could then nudge it right."
            },
            {
              "name": "visible",
              "value": "false"
            }
          ]
        },
        {
          "costume": "info",
          "x": 420,
          "y": 420,
          "attributes": [
            {
              "name": "text",
              "value": "Put the grenade down here!"
            },
            {
              "name": "visible",
              "value": "false"
            }
          ]
        },
        {
          "costume": "info",
          "x": 600,
          "y": 600,
          "attributes": [
            {
              "name": "text",
              "value": "Put the chair here!\n"
            },
            {
              "name": "visible",
              "value": "false"
            }
          ]
        }
      ]
    },
    {
      "name": "extra",
      "actors": [
        {
          "costume": "progress",
          "x": 480,
          "y": 600,
          "attributes": [
            {
              "name": "expectedCostumeName",
              "value": "chair"
            },
            {
              "name": "text",
              "value": "It went a long way with one push"
            },
            {
              "name": "duration",
              "value": "4"
            }
          ]
        },
        {
          "costume": "progress",
          "x": 420,
          "y": 0,
          "attributes": [
            {
              "name": "expectedCostumeName",
              "value": "grenade2"
            },
            {
              "name": "text",
              "value": "Yeah, excellent.\nNow BOOM time."
            },
            {
              "name": "duration",
              "value": "4"
            }
          ]
        },
        {
          "costume": "progress",
          "x": 420,
          "y": -60,
          "attributes": [
            {
              "name": "expectedCostumeName",
              "value": ""
            },
            {
              "name": "text",
              "value": "Woo-hoo"
            },
            {
              "name": "duration",
              "value": "4"
            }
          ]
        },
        {
          "costume": "progress",
          "x": 480,
          "y": 0,
          "attributes": [
            {
              "name": "expectedCostumeName",
              "value": ""
            },
            {
              "name": "text",
              "value": "Damn, the grenade was\nthe wrong way round."
            },
            {
              "name": "duration",
              "value": "4"
            }
          ]
        },
        {
          "costume": "progress",
          "x": 540,
          "y": 240,
          "attributes": [
            {
              "name": "expectedCostumeName",
              "value": "chair"
            },
            {
              "name": "text",
              "value": "That's a good start"
            },
            {
              "name": "duration",
              "value": "4"
            }
          ]
        },
        {
          "costume": "progress",
          "x": 60,
          "y": 240,
          "attributes": [
            {
              "name": "expectedCostumeName",
              "value": "chair"
            },
            {
              "name": "text",
              "value": "Now what? Try again!"
            },
            {
              "name": "duration",
              "value": "4"
            }
          ]
        },
        {
          "costume": "progress",
          "x": 240,
          "y": 60,
          "attributes": [
            {
              "name": "expectedCostumeName",
              "value": "chair"
            },
            {
              "name": "text",
              "value": "Now what? Try again."
            },
            {
              "name": "duration",
              "value": "4"
            }
          ]
        }
      ]
    }
  ]
}