{
  "director": "CQDirector",
  "directorAttributes": [
    {
      "name": "blasts",
      "value": "99"
    },
    {
      "name": "cheatInstructions",
      "value": ""
    },
    {
      "name": "sceneTitle",
      "value": ""
    }
  ],
  "background": "#000000",
  "showMouse": true,
  "layout": "cq",
  "snapToGrid": {
    "enabled": false,
    "xSpacing": 50,
    "ySpacing": 50,
    "xOffset": 0,
    "yOffset": 0,
    "xCloseness": 10,
    "yCloseness": 10
  },
  "snapToGuides": {
    "enabled": true,
    "closeness": 5,
    "x": [
      
    ],
    "y": [
      
    ]
  },
  "snapToOthers": {
    "enabled": true,
    "xCloseness": 10,
    "yCloseness": 10
  },
  "snapRotation": {
    "enabled": true,
    "step": 15,
    "closeness": 15
  },
  "include": [
    
  ],
  "stages": [
    {
      "name": "main",
      "actors": [
        {
          "costume": "cqPlayer",
          "x": 600,
          "y": 600,
          "attributes": [
            {
              "name": "offsetX",
              "value": "0"
            },
            {
              "name": "offsetY",
              "value": "0"
            }
          ]
        },
        {
          "costume": "concrete",
          "x": 600,
          "y": 300
        },
        {
          "costume": "cqSoil",
          "x": 300,
          "y": 120
        },
        {
          "costume": "cqSoil",
          "x": 720,
          "y": 660
        },
        {
          "costume": "cqSoil",
          "x": 900,
          "y": 540
        },
        {
          "costume": "cqSoil",
          "x": 900,
          "y": 600
        },
        {
          "costume": "cqSoil",
          "x": 900,
          "y": 660
        },
        {
          "costume": "cqSoil",
          "x": 900,
          "y": 720
        },
        {
          "costume": "cqSoil",
          "x": 840,
          "y": 720
        },
        {
          "costume": "cqSoil",
          "x": 420,
          "y": 780
        },
        {
          "costume": "cqSoil",
          "x": 420,
          "y": 840
        },
        {
          "costume": "cqSoil",
          "x": 300,
          "y": 660
        },
        {
          "costume": "cqSoil",
          "x": 240,
          "y": 660
        },
        {
          "costume": "cqSoil",
          "x": 600,
          "y": 900
        },
        {
          "costume": "cqSoil",
          "x": 540,
          "y": 900
        },
        {
          "costume": "cqSoil",
          "x": 300,
          "y": 900
        },
        {
          "costume": "cqSoil",
          "x": 360,
          "y": 900
        },
        {
          "costume": "cqSoil",
          "x": 240,
          "y": 900
        },
        {
          "costume": "cqSoil",
          "x": 180,
          "y": 900
        },
        {
          "costume": "cqSoil",
          "x": 180,
          "y": 840
        },
        {
          "costume": "cqSoil",
          "x": 180,
          "y": 720
        },
        {
          "costume": "cqSoil",
          "x": 180,
          "y": 780
        },
        {
          "costume": "cqSoil",
          "x": 180,
          "y": 420
        },
        {
          "costume": "cqSoil",
          "x": 180,
          "y": 360
        },
        {
          "costume": "cqSoil",
          "x": 360,
          "y": 120
        },
        {
          "costume": "cqSoil",
          "x": 420,
          "y": 120
        },
        {
          "costume": "cqSoil",
          "x": 420,
          "y": 300
        },
        {
          "costume": "cqSoil",
          "x": 480,
          "y": 300
        },
        {
          "costume": "cqSoil",
          "x": 540,
          "y": 300
        },
        {
          "costume": "cqSoil",
          "x": 660,
          "y": 300
        },
        {
          "costume": "cqSoil",
          "x": 720,
          "y": 300
        },
        {
          "costume": "cqSoil",
          "x": 780,
          "y": 300
        },
        {
          "costume": "cqSoil",
          "x": 840,
          "y": 300
        },
        {
          "costume": "cqSoil",
          "x": 780,
          "y": 360
        },
        {
          "costume": "cqSoil",
          "x": 780,
          "y": 420
        },
        {
          "costume": "cqSoil",
          "x": 240,
          "y": 480
        },
        {
          "costume": "cqSoil",
          "x": 900,
          "y": 420
        },
        {
          "costume": "cqSoil",
          "x": 900,
          "y": 480
        },
        {
          "costume": "cqSoil",
          "x": 300,
          "y": 480
        },
        {
          "costume": "cqSoil",
          "x": 360,
          "y": 480
        },
        {
          "costume": "cqSoil",
          "x": 840,
          "y": 540
        },
        {
          "costume": "cqSoil",
          "x": 420,
          "y": 420
        },
        {
          "costume": "cqSoil",
          "x": 420,
          "y": 360
        },
        {
          "costume": "cqSoil",
          "x": 360,
          "y": 720
        },
        {
          "costume": "cqSoil",
          "x": 240,
          "y": 120
        },
        {
          "costume": "cqRock",
          "x": 360,
          "y": 540
        },
        {
          "costume": "cqRock",
          "x": 660,
          "y": 540
        },
        {
          "costume": "cqSoil",
          "x": 600,
          "y": 420
        },
        {
          "costume": "cqSoil",
          "x": 660,
          "y": 480
        },
        {
          "costume": "cqSoil",
          "x": 720,
          "y": 480
        },
        {
          "costume": "cqEnemy",
          "x": 360,
          "y": 420
        },
        {
          "costume": "cqRock",
          "x": 240,
          "y": 540
        },
        {
          "costume": "cqSoil",
          "x": 600,
          "y": 360
        },
        {
          "costume": "cqSoil",
          "x": 780,
          "y": 540
        },
        {
          "costume": "cqRock",
          "x": 360,
          "y": 960
        },
        {
          "costume": "cqSoil",
          "x": 180,
          "y": 300
        },
        {
          "costume": "cqSoil",
          "x": 720,
          "y": 600
        },
        {
          "costume": "cqRock",
          "x": 780,
          "y": 780
        },
        {
          "costume": "cqSoil",
          "x": 780,
          "y": 720
        },
        {
          "costume": "cqSoil",
          "x": 180,
          "y": 240
        },
        {
          "costume": "cqSoil",
          "x": 180,
          "y": 180
        },
        {
          "costume": "cqSoil",
          "x": 420,
          "y": 240
        },
        {
          "costume": "cqSoil",
          "x": 420,
          "y": 180
        },
        {
          "costume": "cqSoil",
          "x": 120,
          "y": 480
        },
        {
          "costume": "cqSoil",
          "x": 120,
          "y": 480
        },
        {
          "costume": "cqEnemy",
          "x": 660,
          "y": 420
        },
        {
          "costume": "cqEnemy",
          "x": 840,
          "y": 660
        }
      ]
    },
    {
      "name": "extra",
      "actors": [
        {
          "costume": "spawn",
          "x": 240,
          "y": 840,
          "text": "spawn"
        },
        {
          "costume": "spawn",
          "x": 300,
          "y": 300,
          "text": "spawn"
        }
      ]
    }
  ]
}