{
  "director": "PlayDirector",
  "directorAttributes": [
    {
      "name": "cheatInstructions",
      "value": ""
    },
    {
      "name": "sceneTitle",
      "value": "Welcome to Caven Quest"
    }
  ],
  "background": "#000000",
  "showMouse": true,
  "layout": "default",
  "snapToGrid": {
    "enabled": false,
    "xSpacing": 50,
    "ySpacing": 50,
    "xOffset": 0,
    "yOffset": 0,
    "xCloseness": 10,
    "yCloseness": 10
  },
  "snapToGuides": {
    "enabled": true,
    "closeness": 5,
    "x": [
      
    ],
    "y": [
      
    ]
  },
  "snapToOthers": {
    "enabled": true,
    "xCloseness": 10,
    "yCloseness": 10
  },
  "snapRotation": {
    "enabled": true,
    "step": 15,
    "closeness": 15
  },
  "include": [
    
  ],
  "stages": [
    {
      "name": "main",
      "actors": [
        {
          "costume": "burton",
          "x": 540,
          "y": 720,
          "attributes": [
            {
              "name": "offsetX",
              "value": "0"
            },
            {
              "name": "offsetY",
              "value": "0"
            }
          ]
        },
        {
          "costume": "wallNE",
          "x": 660,
          "y": 780
        },
        {
          "costume": "wall",
          "x": 600,
          "y": 780
        },
        {
          "costume": "wall",
          "x": 540,
          "y": 780
        },
        {
          "costume": "wall",
          "x": 480,
          "y": 780
        },
        {
          "costume": "wall",
          "x": 660,
          "y": 720
        },
        {
          "costume": "wall",
          "x": 420,
          "y": 720
        },
        {
          "costume": "wall",
          "x": 420,
          "y": 360
        },
        {
          "costume": "wall",
          "x": 420,
          "y": 300
        },
        {
          "costume": "wall",
          "x": 480,
          "y": 300
        },
        {
          "costume": "wall",
          "x": 660,
          "y": 360
        },
        {
          "costume": "wall",
          "x": 660,
          "y": 300
        },
        {
          "costume": "wall",
          "x": 600,
          "y": 300
        },
        {
          "costume": "wall",
          "x": 420,
          "y": 240
        },
        {
          "costume": "wall",
          "x": 660,
          "y": 240
        },
        {
          "costume": "wallNW",
          "x": 420,
          "y": 780
        },
        {
          "costume": "info",
          "x": 600,
          "y": 720,
          "attributes": [
            {
              "name": "text",
              "value": "Welcome to Cavern Quest"
            },
            {
              "name": "visible",
              "value": "false"
            }
          ]
        },
        {
          "costume": "gateFromHub",
          "x": 540,
          "y": 180,
          "attributes": [
            {
              "name": "scene",
              "value": "cq/01"
            },
            {
              "name": "requires",
              "value": ""
            }
          ]
        },
        {
          "costume": "wall",
          "x": 420,
          "y": 180
        },
        {
          "costume": "wall",
          "x": 660,
          "y": 180
        },
        {
          "costume": "wall",
          "x": 660,
          "y": 120
        },
        {
          "costume": "wall",
          "x": 420,
          "y": 120
        },
        {
          "costume": "wallSE",
          "x": 660,
          "y": 60
        },
        {
          "costume": "wallSW",
          "x": 420,
          "y": 60
        },
        {
          "costume": "wall",
          "x": 480,
          "y": 60
        },
        {
          "costume": "wall",
          "x": 540,
          "y": 60
        },
        {
          "costume": "wall",
          "x": 600,
          "y": 60
        },
        {
          "costume": "wall",
          "x": 420,
          "y": 660
        },
        {
          "costume": "wall",
          "x": 660,
          "y": 660
        },
        {
          "costume": "wall",
          "x": 480,
          "y": 660
        },
        {
          "costume": "wall",
          "x": 540,
          "y": 660
        },
        {
          "costume": "wall",
          "x": 660,
          "y": 600
        },
        {
          "costume": "wall",
          "x": 660,
          "y": 540
        },
        {
          "costume": "wall",
          "x": 600,
          "y": 540
        },
        {
          "costume": "wall",
          "x": 540,
          "y": 540
        },
        {
          "costume": "wall",
          "x": 480,
          "y": 420
        },
        {
          "costume": "wall",
          "x": 420,
          "y": 600
        },
        {
          "costume": "wall",
          "x": 420,
          "y": 540
        },
        {
          "costume": "wall",
          "x": 420,
          "y": 480
        },
        {
          "costume": "wall",
          "x": 420,
          "y": 420
        },
        {
          "costume": "wall",
          "x": 660,
          "y": 420
        },
        {
          "costume": "wall",
          "x": 660,
          "y": 480
        },
        {
          "costume": "wall",
          "x": 540,
          "y": 420
        },
        {
          "costume": "info",
          "x": 600,
          "y": 600,
          "attributes": [
            {
              "name": "text",
              "value": "The normal rules don't\napply here!"
            },
            {
              "name": "visible",
              "value": "false"
            }
          ]
        },
        {
          "costume": "info",
          "x": 600,
          "y": 480,
          "attributes": [
            {
              "name": "text",
              "value": "It's a completely different game."
            },
            {
              "name": "visible",
              "value": "false"
            }
          ]
        },
        {
          "costume": "gateFromHub",
          "x": 480,
          "y": 720,
          "attributes": [
            {
              "name": "scene",
              "value": "hub"
            },
            {
              "name": "requires",
              "value": ""
            }
          ]
        }
      ]
    }
  ]
}