{
  "director": "TestDirector",
  "directorAttributes": [
    {
      "name": "nextScene",
      "value": "solutions/grenades/1a"
    },
    {
      "name": "extraValuables",
      "value": "0"
    },
    {
      "name": "cheatInstructions",
      "value": ""
    },
    {
      "name": "sceneTitle",
      "value": ""
    }
  ],
  "background": "#000000",
  "showMouse": true,
  "layout": "default",
  "snapToGrid": {
    "enabled": false,
    "xSpacing": 50,
    "ySpacing": 50,
    "xOffset": 0,
    "yOffset": 0,
    "xCloseness": 10,
    "yCloseness": 10
  },
  "snapToGuides": {
    "enabled": true,
    "closeness": 5,
    "x": [
      
    ],
    "y": [
      
    ]
  },
  "snapToOthers": {
    "enabled": true,
    "xCloseness": 10,
    "yCloseness": 10
  },
  "snapRotation": {
    "enabled": true,
    "step": 15,
    "closeness": 15
  },
  "include": [
    
  ],
  "stages": [
    {
      "name": "main",
      "actors": [
        {
          "costume": "wall",
          "x": 60,
          "y": 300
        },
        {
          "costume": "wall",
          "x": 60,
          "y": 240
        },
        {
          "costume": "wall",
          "x": 60,
          "y": 180
        },
        {
          "costume": "wall",
          "x": 60,
          "y": 120
        },
        {
          "costume": "wall",
          "x": 120,
          "y": 240
        },
        {
          "costume": "wall",
          "x": 180,
          "y": 300
        },
        {
          "costume": "wall",
          "x": 120,
          "y": 360
        },
        {
          "costume": "wall",
          "x": 360,
          "y": 360
        },
        {
          "costume": "wallSE",
          "x": 180,
          "y": 240
        },
        {
          "costume": "wallNW",
          "x": 60,
          "y": 360
        },
        {
          "costume": "wallNE",
          "x": 180,
          "y": 360
        },
        {
          "costume": "wall",
          "x": 420,
          "y": 180
        },
        {
          "costume": "wall",
          "x": 300,
          "y": 120
        },
        {
          "costume": "wall",
          "x": 360,
          "y": 240
        },
        {
          "costume": "wall",
          "x": 300,
          "y": 180
        },
        {
          "costume": "wall",
          "x": 300,
          "y": 240
        },
        {
          "costume": "wall",
          "x": 300,
          "y": 300
        },
        {
          "costume": "wall",
          "x": 420,
          "y": 300
        },
        {
          "costume": "wall",
          "x": 420,
          "y": 240
        },
        {
          "costume": "wall",
          "x": 420,
          "y": 120
        },
        {
          "costume": "wall",
          "x": 540,
          "y": 300
        },
        {
          "costume": "wall",
          "x": 600,
          "y": 240
        },
        {
          "costume": "wall",
          "x": 660,
          "y": 180
        },
        {
          "costume": "wall",
          "x": 600,
          "y": 120
        },
        {
          "costume": "wall",
          "x": 780,
          "y": 300
        },
        {
          "costume": "wall",
          "x": 900,
          "y": 180
        },
        {
          "costume": "wall",
          "x": 840,
          "y": 120
        },
        {
          "costume": "wall",
          "x": 600,
          "y": 360
        },
        {
          "costume": "wall",
          "x": 840,
          "y": 360
        },
        {
          "costume": "wall",
          "x": 840,
          "y": 240
        },
        {
          "costume": "wallNW",
          "x": 540,
          "y": 360
        },
        {
          "costume": "wallNW",
          "x": 300,
          "y": 360
        },
        {
          "costume": "wallNW",
          "x": 780,
          "y": 360
        },
        {
          "costume": "wallNE",
          "x": 420,
          "y": 360
        },
        {
          "costume": "wallNE",
          "x": 900,
          "y": 240
        },
        {
          "costume": "wallNE",
          "x": 660,
          "y": 240
        },
        {
          "costume": "wallSW",
          "x": 780,
          "y": 240
        },
        {
          "costume": "wallSW",
          "x": 540,
          "y": 240
        },
        {
          "costume": "wallSE",
          "x": 660,
          "y": 120
        },
        {
          "costume": "wallSE",
          "x": 900,
          "y": 120
        },
        {
          "costume": "wallSW",
          "x": 540,
          "y": 120
        },
        {
          "costume": "wallSW",
          "x": 780,
          "y": 120
        },
        {
          "costume": "wallNE",
          "x": 660,
          "y": 360
        },
        {
          "costume": "wallNE",
          "x": 900,
          "y": 360
        },
        {
          "costume": "plainText",
          "x": 480,
          "y": 480,
          "text": "Furniture Solutions"
        }
      ]
    }
  ]
}