{
  "director": "PlayDirector",
  "directorAttributes": [
    {
      "name": "cheatInstructions",
      "value": ""
    },
    {
      "name": "sceneTitle",
      "value": ""
    }
  ],
  "background": "#000000",
  "showMouse": true,
  "layout": "default",
  "snapToGrid": {
    "enabled": false,
    "xSpacing": 50,
    "ySpacing": 50,
    "xOffset": 0,
    "yOffset": 0,
    "xCloseness": 10,
    "yCloseness": 10
  },
  "snapToGuides": {
    "enabled": true,
    "closeness": 5,
    "x": [
      
    ],
    "y": [
      
    ]
  },
  "snapToOthers": {
    "enabled": true,
    "xCloseness": 10,
    "yCloseness": 10
  },
  "snapRotation": {
    "enabled": true,
    "step": 15,
    "closeness": 15
  },
  "include": [
    
  ],
  "stages": [
    {
      "name": "main",
      "actors": [
        {
          "costume": "burton",
          "x": 180,
          "y": 540,
          "attributes": [
            {
              "name": "offsetX",
              "value": "0"
            },
            {
              "name": "offsetY",
              "value": "0"
            }
          ]
        },
        {
          "costume": "burton",
          "x": 660,
          "y": 540,
          "attributes": [
            {
              "name": "offsetX",
              "value": "0"
            },
            {
              "name": "offsetY",
              "value": "0"
            }
          ]
        },
        {
          "costume": "info",
          "x": 600,
          "y": 540,
          "attributes": [
            {
              "name": "text",
              "value": "<Yawn>\nOh, hello Burton.\n"
            },
            {
              "name": "visible",
              "value": "false"
            }
          ]
        },
        {
          "costume": "wall",
          "x": 180,
          "y": 600
        },
        {
          "costume": "wall",
          "x": 240,
          "y": 600
        },
        {
          "costume": "wall",
          "x": 300,
          "y": 600
        },
        {
          "costume": "wall",
          "x": 360,
          "y": 600
        },
        {
          "costume": "wall",
          "x": 480,
          "y": 600
        },
        {
          "costume": "wall",
          "x": 540,
          "y": 600
        },
        {
          "costume": "wall",
          "x": 600,
          "y": 600
        },
        {
          "costume": "wall",
          "x": 660,
          "y": 600
        },
        {
          "costume": "wall",
          "x": 720,
          "y": 540
        },
        {
          "costume": "wall",
          "x": 120,
          "y": 540
        },
        {
          "costume": "wall",
          "x": 180,
          "y": 480
        },
        {
          "costume": "wall",
          "x": 240,
          "y": 480
        },
        {
          "costume": "wall",
          "x": 300,
          "y": 480
        },
        {
          "costume": "wall",
          "x": 360,
          "y": 480
        },
        {
          "costume": "wall",
          "x": 480,
          "y": 480
        },
        {
          "costume": "wall",
          "x": 540,
          "y": 480
        },
        {
          "costume": "wall",
          "x": 600,
          "y": 480
        },
        {
          "costume": "wall",
          "x": 660,
          "y": 480
        },
        {
          "costume": "rock",
          "x": 420,
          "y": 660
        },
        {
          "costume": "wall",
          "x": 420,
          "y": 900
        },
        {
          "costume": "wall",
          "x": 360,
          "y": 780
        },
        {
          "costume": "gateCompleted",
          "x": 420,
          "y": 300,
          "attributes": [
            {
              "name": "scene",
              "value": "hub"
            }
          ]
        },
        {
          "costume": "wall",
          "x": 360,
          "y": 420
        },
        {
          "costume": "wall",
          "x": 360,
          "y": 300
        },
        {
          "costume": "wall",
          "x": 420,
          "y": 240
        },
        {
          "costume": "wall",
          "x": 660,
          "y": 420
        },
        {
          "costume": "wall",
          "x": 480,
          "y": 420
        },
        {
          "costume": "wall",
          "x": 480,
          "y": 780
        },
        {
          "costume": "wall",
          "x": 360,
          "y": 720
        },
        {
          "costume": "wall",
          "x": 480,
          "y": 720
        },
        {
          "costume": "coin",
          "x": 300,
          "y": 660
        },
        {
          "costume": "coin",
          "x": 240,
          "y": 660
        },
        {
          "costume": "coin",
          "x": 540,
          "y": 660
        },
        {
          "costume": "coin",
          "x": 600,
          "y": 660
        },
        {
          "costume": "wallSW",
          "x": 120,
          "y": 480
        },
        {
          "costume": "wallSW",
          "x": 360,
          "y": 240
        },
        {
          "costume": "wallSE",
          "x": 480,
          "y": 240
        },
        {
          "costume": "wallSE",
          "x": 720,
          "y": 480
        },
        {
          "costume": "wallNE",
          "x": 720,
          "y": 600
        },
        {
          "costume": "wallNW",
          "x": 120,
          "y": 600
        },
        {
          "costume": "wallNW",
          "x": 360,
          "y": 900
        },
        {
          "costume": "wallNE",
          "x": 480,
          "y": 900
        },
        {
          "costume": "wall",
          "x": 180,
          "y": 660
        },
        {
          "costume": "wall",
          "x": 180,
          "y": 720
        },
        {
          "costume": "wall",
          "x": 240,
          "y": 780
        },
        {
          "costume": "wall",
          "x": 300,
          "y": 780
        },
        {
          "costume": "wall",
          "x": 540,
          "y": 780
        },
        {
          "costume": "wall",
          "x": 600,
          "y": 780
        },
        {
          "costume": "wall",
          "x": 660,
          "y": 660
        },
        {
          "costume": "wall",
          "x": 660,
          "y": 720
        },
        {
          "costume": "wallNE",
          "x": 660,
          "y": 780
        },
        {
          "costume": "wallNW",
          "x": 180,
          "y": 780
        },
        {
          "costume": "wall",
          "x": 660,
          "y": 360
        },
        {
          "costume": "wall",
          "x": 600,
          "y": 300
        },
        {
          "costume": "wall",
          "x": 540,
          "y": 300
        },
        {
          "costume": "wall",
          "x": 300,
          "y": 300
        },
        {
          "costume": "wall",
          "x": 240,
          "y": 300
        },
        {
          "costume": "wall",
          "x": 180,
          "y": 360
        },
        {
          "costume": "wall",
          "x": 180,
          "y": 420
        },
        {
          "costume": "wall",
          "x": 480,
          "y": 300
        },
        {
          "costume": "wallSW",
          "x": 180,
          "y": 300
        },
        {
          "costume": "wallSE",
          "x": 660,
          "y": 300
        },
        {
          "costume": "coin",
          "x": 540,
          "y": 420
        },
        {
          "costume": "coin",
          "x": 240,
          "y": 420
        },
        {
          "costume": "coin",
          "x": 300,
          "y": 420
        },
        {
          "costume": "coin",
          "x": 420,
          "y": 540
        },
        {
          "costume": "balloon",
          "x": 420,
          "y": 480
        },
        {
          "costume": "coin",
          "x": 600,
          "y": 420
        },
        {
          "costume": "coin",
          "x": 360,
          "y": 660
        },
        {
          "costume": "coin",
          "x": 480,
          "y": 660
        },
        {
          "costume": "squash_P_E",
          "x": 300,
          "y": 540
        },
        {
          "costume": "squash_P_W",
          "x": 480,
          "y": 540
        },
        {
          "costume": "wall",
          "x": 360,
          "y": 840
        },
        {
          "costume": "wall",
          "x": 480,
          "y": 840
        },
        {
          "costume": "coin",
          "x": 420,
          "y": 840
        },
        {
          "costume": "coin",
          "x": 420,
          "y": 600
        },
        {
          "costume": "plainText",
          "x": 420,
          "y": 360,
          "text": "Press TAB to switch robots"
        }
      ]
    },
    {
      "name": "extra",
      "actors": [
        {
          "costume": "progress",
          "x": 420,
          "y": 600,
          "attributes": [
            {
              "name": "expectedCostumeName",
              "value": "burton"
            },
            {
              "name": "text",
              "value": "Hey Foston, wake up!\n(Press Tab to wake Foston)"
            },
            {
              "name": "duration",
              "value": "4"
            }
          ]
        },
        {
          "costume": "progress",
          "x": 360,
          "y": 540,
          "attributes": [
            {
              "name": "expectedCostumeName",
              "value": "balloon"
            },
            {
              "name": "text",
              "value": "I should get out of the way\nbefore you drop that rock!"
            },
            {
              "name": "duration",
              "value": "6"
            }
          ]
        },
        {
          "costume": "progress",
          "x": 420,
          "y": 780,
          "attributes": [
            {
              "name": "expectedCostumeName",
              "value": "rock"
            },
            {
              "name": "text",
              "value": "I think I went too far."
            },
            {
              "name": "duration",
              "value": "4"
            }
          ]
        },
        {
          "costume": "progress",
          "x": 420,
          "y": 840,
          "attributes": [
            {
              "name": "expectedCostumeName",
              "value": ""
            },
            {
              "name": "text",
              "value": "Thanks for the help Foston."
            },
            {
              "name": "duration",
              "value": "4"
            }
          ]
        },
        {
          "costume": "progress",
          "x": 360,
          "y": 360,
          "attributes": [
            {
              "name": "expectedCostumeName",
              "value": "rock"
            },
            {
              "name": "text",
              "value": "You are most welcome,\nBurton."
            },
            {
              "name": "duration",
              "value": "4"
            }
          ]
        },
        {
          "costume": "progress",
          "x": 480,
          "y": 360,
          "attributes": [
            {
              "name": "expectedCostumeName",
              "value": "rock"
            },
            {
              "name": "text",
              "value": "No probs Burton."
            },
            {
              "name": "duration",
              "value": "4"
            }
          ]
        }
      ]
    }
  ]
}