{
  "director": "TestDirector",
  "directorAttributes": [
    {
      "name": "cheatInstructions",
      "value": "DRRRRRRRUULUURDDDLLDLLLLLURRUUR.LLL..UUURRRRRRURRLUURUDD..LLLUUDDLULRRRUDDDRRRDDDDRRRR.LR.LR.LLDDRRUULLUUURDRLUUULUURRDL"
    },
    {
      "name": "sceneTitle",
      "value": ""
    },
    {
      "name": "nextScene",
      "value": "solutions/balloons/pass"
    },
    {
      "name": "extraValuables",
      "value": "0"
    }
  ],
  "background": "#000000",
  "showMouse": true,
  "layout": "default",
  "snapToGrid": {
    "enabled": false,
    "xSpacing": 50,
    "ySpacing": 50,
    "xOffset": 0,
    "yOffset": 0,
    "xCloseness": 10,
    "yCloseness": 10
  },
  "snapToGuides": {
    "enabled": true,
    "closeness": 5,
    "x": [
      
    ],
    "y": [
      
    ]
  },
  "snapToOthers": {
    "enabled": true,
    "xCloseness": 10,
    "yCloseness": 10
  },
  "snapRotation": {
    "enabled": true,
    "step": 15,
    "closeness": 15
  },
  "include": [
    "balloons/5a"
  ],
  "stages": [
    
  ]
}