{
  "director": "PlayDirector",
  "directorAttributes": [
    {
      "name": "cheatInstructions",
      "value": ""
    },
    {
      "name": "sceneTitle",
      "value": "Shuffling Rocks"
    }
  ],
  "background": "#000000",
  "showMouse": true,
  "layout": "default",
  "snapToGrid": {
    "enabled": false,
    "xSpacing": 50,
    "ySpacing": 50,
    "xOffset": 0,
    "yOffset": 0,
    "xCloseness": 10,
    "yCloseness": 10
  },
  "snapToGuides": {
    "enabled": true,
    "closeness": 5,
    "x": [
      
    ],
    "y": [
      
    ]
  },
  "snapToOthers": {
    "enabled": true,
    "xCloseness": 10,
    "yCloseness": 10
  },
  "snapRotation": {
    "enabled": true,
    "step": 15,
    "closeness": 15
  },
  "include": [
    
  ],
  "stages": [
    {
      "name": "main",
      "actors": [
        {
          "costume": "wall",
          "x": -60,
          "y": 300
        },
        {
          "costume": "wall",
          "x": 0,
          "y": 60
        },
        {
          "costume": "wall",
          "x": 60,
          "y": -60
        },
        {
          "costume": "wall",
          "x": 120,
          "y": -60
        },
        {
          "costume": "wall",
          "x": 180,
          "y": -60
        },
        {
          "costume": "wall",
          "x": 240,
          "y": -60
        },
        {
          "costume": "wall",
          "x": 300,
          "y": -60
        },
        {
          "costume": "wall",
          "x": 300,
          "y": 120
        },
        {
          "costume": "wall",
          "x": 0,
          "y": 120
        },
        {
          "costume": "wall",
          "x": 240,
          "y": 300
        },
        {
          "costume": "wall",
          "x": 120,
          "y": 120
        },
        {
          "costume": "wall",
          "x": 240,
          "y": 180
        },
        {
          "costume": "wall",
          "x": 180,
          "y": 180
        },
        {
          "costume": "wall",
          "x": -120,
          "y": 0
        },
        {
          "costume": "wall",
          "x": 300,
          "y": 180
        },
        {
          "costume": "wallNW",
          "x": 0,
          "y": 180
        },
        {
          "costume": "wall",
          "x": -60,
          "y": 0
        },
        {
          "costume": "wall",
          "x": -180,
          "y": 180
        },
        {
          "costume": "wall",
          "x": -120,
          "y": 300
        },
        {
          "costume": "wall",
          "x": 60,
          "y": 360
        },
        {
          "costume": "wall",
          "x": 180,
          "y": 300
        },
        {
          "costume": "wall",
          "x": 0,
          "y": 0
        },
        {
          "costume": "wallSW",
          "x": -180,
          "y": 0
        },
        {
          "costume": "wall",
          "x": -180,
          "y": 240
        },
        {
          "costume": "wallNW",
          "x": -180,
          "y": 300
        },
        {
          "costume": "wallSE",
          "x": 0,
          "y": 300
        },
        {
          "costume": "wallSW",
          "x": 120,
          "y": 300
        },
        {
          "costume": "wallNW",
          "x": 120,
          "y": 180
        },
        {
          "costume": "wall",
          "x": 360,
          "y": 240
        },
        {
          "costume": "wallSW",
          "x": 0,
          "y": -60
        },
        {
          "costume": "wallSW",
          "x": 120,
          "y": 60
        },
        {
          "costume": "wallNW",
          "x": 0,
          "y": 360
        },
        {
          "costume": "wallNE",
          "x": 120,
          "y": 360
        },
        {
          "costume": "wall",
          "x": -180,
          "y": 60
        },
        {
          "costume": "wall",
          "x": -180,
          "y": 120
        },
        {
          "costume": "wallNE",
          "x": 360,
          "y": 300
        },
        {
          "costume": "wall",
          "x": 300,
          "y": 300
        },
        {
          "costume": "wallNW",
          "x": 480,
          "y": 180
        },
        {
          "costume": "wallNW",
          "x": 540,
          "y": 240
        },
        {
          "costume": "wallNW",
          "x": 600,
          "y": 300
        },
        {
          "costume": "wallSE",
          "x": 780,
          "y": -360
        },
        {
          "costume": "wallSE",
          "x": 660,
          "y": 300
        },
        {
          "costume": "wall",
          "x": 660,
          "y": 360
        },
        {
          "costume": "wall",
          "x": 420,
          "y": 480
        },
        {
          "costume": "wall",
          "x": 360,
          "y": 480
        },
        {
          "costume": "wall",
          "x": 60,
          "y": 420
        },
        {
          "costume": "wall",
          "x": 60,
          "y": 480
        },
        {
          "costume": "wall",
          "x": 600,
          "y": 240
        },
        {
          "costume": "wall",
          "x": 540,
          "y": 180
        },
        {
          "costume": "wall",
          "x": 480,
          "y": 0
        },
        {
          "costume": "wall",
          "x": 480,
          "y": -240
        },
        {
          "costume": "wall",
          "x": 600,
          "y": -360
        },
        {
          "costume": "wall",
          "x": 780,
          "y": 0
        },
        {
          "costume": "wall",
          "x": 780,
          "y": 60
        },
        {
          "costume": "wall",
          "x": 780,
          "y": 120
        },
        {
          "costume": "wall",
          "x": 720,
          "y": 180
        },
        {
          "costume": "wall",
          "x": 600,
          "y": 180
        },
        {
          "costume": "wall",
          "x": 660,
          "y": 180
        },
        {
          "costume": "wallNE",
          "x": 480,
          "y": 60
        },
        {
          "costume": "wall",
          "x": 480,
          "y": -300
        },
        {
          "costume": "wall",
          "x": 780,
          "y": -60
        },
        {
          "costume": "wallNE",
          "x": 780,
          "y": 180
        },
        {
          "costume": "wallSW",
          "x": 240,
          "y": -180
        },
        {
          "costume": "wall",
          "x": 660,
          "y": -360
        },
        {
          "costume": "wall",
          "x": 540,
          "y": -360
        },
        {
          "costume": "wall",
          "x": 780,
          "y": -240
        },
        {
          "costume": "wall",
          "x": 780,
          "y": -180
        },
        {
          "costume": "wall",
          "x": 780,
          "y": -120
        },
        {
          "costume": "wallSW",
          "x": 480,
          "y": -360
        },
        {
          "costume": "wall",
          "x": 420,
          "y": -60
        },
        {
          "costume": "wallSW",
          "x": 300,
          "y": 60
        },
        {
          "costume": "wallSE",
          "x": 360,
          "y": 60
        },
        {
          "costume": "wallSE",
          "x": 360,
          "y": 180
        },
        {
          "costume": "wall",
          "x": 660,
          "y": 420
        },
        {
          "costume": "wallNW",
          "x": 240,
          "y": 780
        },
        {
          "costume": "wallNE",
          "x": 360,
          "y": 780
        },
        {
          "costume": "wall",
          "x": 300,
          "y": 780
        },
        {
          "costume": "wall",
          "x": 300,
          "y": 480
        },
        {
          "costume": "wall",
          "x": 240,
          "y": 540
        },
        {
          "costume": "wall",
          "x": 180,
          "y": 660
        },
        {
          "costume": "wall",
          "x": 420,
          "y": 660
        },
        {
          "costume": "wall",
          "x": 540,
          "y": 660
        },
        {
          "costume": "wallNW",
          "x": 180,
          "y": 720
        },
        {
          "costume": "wallNE",
          "x": 420,
          "y": 720
        },
        {
          "costume": "wallSW",
          "x": 180,
          "y": 600
        },
        {
          "costume": "wallNW",
          "x": 660,
          "y": 720
        },
        {
          "costume": "wallNW",
          "x": 720,
          "y": 780
        },
        {
          "costume": "wall",
          "x": 780,
          "y": 780
        },
        {
          "costume": "wallNE",
          "x": 840,
          "y": 780
        },
        {
          "costume": "wallNE",
          "x": 900,
          "y": 720
        },
        {
          "costume": "wall",
          "x": 720,
          "y": 720
        },
        {
          "costume": "wall",
          "x": 840,
          "y": 720
        },
        {
          "costume": "wall",
          "x": 660,
          "y": 660
        },
        {
          "costume": "wall",
          "x": 900,
          "y": 660
        },
        {
          "costume": "wall",
          "x": 660,
          "y": 600
        },
        {
          "costume": "wall",
          "x": 840,
          "y": 540
        },
        {
          "costume": "wall",
          "x": 780,
          "y": 480
        },
        {
          "costume": "wall",
          "x": 720,
          "y": 480
        },
        {
          "costume": "wall",
          "x": 660,
          "y": 480
        },
        {
          "costume": "wallSE",
          "x": 480,
          "y": -60
        },
        {
          "costume": "wall",
          "x": 600,
          "y": 600
        },
        {
          "costume": "wall",
          "x": 840,
          "y": 600
        },
        {
          "costume": "wall",
          "x": 240,
          "y": 600
        },
        {
          "costume": "wall",
          "x": 240,
          "y": -120
        },
        {
          "costume": "wall",
          "x": 360,
          "y": -180
        },
        {
          "costume": "wall",
          "x": 420,
          "y": -180
        },
        {
          "costume": "wall",
          "x": 300,
          "y": -180
        },
        {
          "costume": "wallNE",
          "x": 480,
          "y": -180
        },
        {
          "costume": "wall",
          "x": 720,
          "y": -360
        },
        {
          "costume": "wall",
          "x": 780,
          "y": -300
        },
        {
          "costume": "wallSW",
          "x": 240,
          "y": 480
        },
        {
          "costume": "wall",
          "x": 420,
          "y": 600
        },
        {
          "costume": "wall",
          "x": 480,
          "y": 660
        },
        {
          "costume": "wall",
          "x": 480,
          "y": 600
        },
        {
          "costume": "wall",
          "x": 600,
          "y": 660
        },
        {
          "costume": "wall",
          "x": 540,
          "y": 600
        },
        {
          "costume": "wall",
          "x": 60,
          "y": 540
        },
        {
          "costume": "wall",
          "x": 60,
          "y": 600
        },
        {
          "costume": "wall",
          "x": 120,
          "y": 660
        },
        {
          "costume": "wallNW",
          "x": 60,
          "y": 660
        },
        {
          "costume": "wallSW",
          "x": 600,
          "y": 480
        },
        {
          "costume": "wallSE",
          "x": 480,
          "y": 480
        },
        {
          "costume": "wallSE",
          "x": 840,
          "y": 480
        },
        {
          "costume": "wallSE",
          "x": 900,
          "y": 600
        },
        {
          "costume": "wallSE",
          "x": 720,
          "y": 600
        },
        {
          "costume": "wallSE",
          "x": 240,
          "y": 720
        },
        {
          "costume": "wallSW",
          "x": 360,
          "y": 720
        },
        {
          "costume": "wallSW",
          "x": 360,
          "y": 600
        },
        {
          "costume": "info",
          "x": 60,
          "y": 180,
          "attributes": [
            {
              "name": "text",
              "value": "You need to \"shuffle\" \nthe rock to the left."
            },
            {
              "name": "visible",
              "value": "true"
            }
          ]
        },
        {
          "costume": "controller",
          "x": 420,
          "y": 0,
          "attributes": [
            {
              "name": "instructions",
              "value": "UUL.RL.RL.RL."
            }
          ]
        },
        {
          "costume": "info",
          "x": 360,
          "y": 0,
          "attributes": [
            {
              "name": "text",
              "value": "Press the controller, and I'll show you\nhow to get rid of those rocks."
            },
            {
              "name": "visible",
              "value": "true"
            }
          ]
        },
        {
          "costume": "controller",
          "x": 540,
          "y": 540,
          "attributes": [
            {
              "name": "instructions",
              "value": "LLLLUULR"
            }
          ]
        },
        {
          "costume": "info",
          "x": 540,
          "y": 480,
          "attributes": [
            {
              "name": "text",
              "value": "I'll show you how to \"shuffle\" a\nrock to one side."
            },
            {
              "name": "visible",
              "value": "true"
            }
          ]
        },
        {
          "costume": "info",
          "x": 660,
          "y": 540,
          "attributes": [
            {
              "name": "text",
              "value": "Now you have a go."
            },
            {
              "name": "visible",
              "value": "false"
            }
          ]
        },
        {
          "costume": "rock",
          "x": 60,
          "y": 300
        },
        {
          "costume": "rock",
          "x": 420,
          "y": 240
        },
        {
          "costume": "rock",
          "x": 420,
          "y": 300
        },
        {
          "costume": "rock",
          "x": 420,
          "y": 360
        },
        {
          "costume": "rock",
          "x": 360,
          "y": 360
        },
        {
          "costume": "rock",
          "x": 480,
          "y": 300
        },
        {
          "costume": "rock",
          "x": 480,
          "y": 240
        },
        {
          "costume": "rock",
          "x": 540,
          "y": 300
        },
        {
          "costume": "rock",
          "x": 540,
          "y": 360
        },
        {
          "costume": "rock",
          "x": 600,
          "y": 360
        },
        {
          "costume": "rock",
          "x": 420,
          "y": 180
        },
        {
          "costume": "rock",
          "x": 300,
          "y": 720
        },
        {
          "costume": "rock",
          "x": 780,
          "y": 720
        },
        {
          "costume": "rock",
          "x": 360,
          "y": -60
        },
        {
          "costume": "key",
          "x": 120,
          "y": 600,
          "attributes": [
            {
              "name": "keyName",
              "value": ""
            }
          ]
        },
        {
          "costume": "safe",
          "x": 120,
          "y": 0,
          "attributes": [
            {
              "name": "keyName",
              "value": ""
            }
          ]
        },
        {
          "costume": "gateCompleted",
          "x": 240,
          "y": 60,
          "attributes": [
            {
              "name": "scene",
              "value": "hub"
            }
          ]
        },
        {
          "costume": "stamp",
          "x": 300,
          "y": 240
        },
        {
          "costume": "stamp",
          "x": 420,
          "y": 120
        },
        {
          "costume": "stamp",
          "x": 360,
          "y": -120
        },
        {
          "costume": "stamp",
          "x": 300,
          "y": 660
        },
        {
          "costume": "stamp",
          "x": 780,
          "y": 660
        },
        {
          "costume": "burton",
          "x": 180,
          "y": 120,
          "attributes": [
            {
              "name": "offsetX",
              "value": "0"
            },
            {
              "name": "offsetY",
              "value": "0"
            }
          ]
        },
        {
          "costume": "info",
          "x": 120,
          "y": 540,
          "attributes": [
            {
              "name": "text",
              "value": "Here's the key to open the safe."
            },
            {
              "name": "visible",
              "value": "false"
            }
          ]
        },
        {
          "costume": "info",
          "x": 180,
          "y": 0,
          "attributes": [
            {
              "name": "text",
              "value": "You need a key to open the safe."
            },
            {
              "name": "visible",
              "value": "false"
            }
          ]
        },
        {
          "costume": "soil",
          "x": 60,
          "y": 240
        },
        {
          "costume": "wallNE",
          "x": 540,
          "y": -300
        }
      ]
    },
    {
      "name": "extra",
      "actors": [
        {
          "costume": "progress",
          "x": 0,
          "y": 240,
          "attributes": [
            {
              "name": "expectedCostumeName",
              "value": "rock"
            },
            {
              "name": "text",
              "value": "Nice shuffle."
            },
            {
              "name": "duration",
              "value": "4"
            }
          ]
        },
        {
          "costume": "progress",
          "x": 660,
          "y": -300,
          "attributes": [
            {
              "name": "expectedCostumeName",
              "value": "rock"
            },
            {
              "name": "text",
              "value": "You can take over now."
            },
            {
              "name": "duration",
              "value": "4"
            }
          ]
        },
        {
          "costume": "progress",
          "x": 60,
          "y": 0,
          "attributes": [
            {
              "name": "expectedCostumeName",
              "value": "rock"
            },
            {
              "name": "text",
              "value": "Oh dear, you should have shuffled\nthe rock!"
            },
            {
              "name": "duration",
              "value": "4"
            }
          ]
        }
      ]
    }
  ]
}