{
  "director": "TestDirector",
  "directorAttributes": [
    {
      "name": "nextScene",
      "value": "tests/07_airBalloons"
    },
    {
      "name": "cheatInstructions",
      "value": ""
    },
    {
      "name": "extraValuables",
      "value": "0"
    },
    {
      "name": "sceneTitle",
      "value": ""
    }
  ],
  "background": "#000000",
  "showMouse": true,
  "layout": "default",
  "snapToGrid": {
    "enabled": false,
    "xSpacing": 50,
    "ySpacing": 50,
    "xOffset": 0,
    "yOffset": 0,
    "xCloseness": 10,
    "yCloseness": 10
  },
  "snapToGuides": {
    "enabled": true,
    "closeness": 5,
    "x": [
      
    ],
    "y": [
      
    ]
  },
  "snapToOthers": {
    "enabled": true,
    "xCloseness": 10,
    "yCloseness": 10
  },
  "snapRotation": {
    "enabled": true,
    "step": 15,
    "closeness": 15
  },
  "include": [
    
  ],
  "stages": [
    {
      "name": "main",
      "actors": [
        {
          "costume": "autoPlayer",
          "x": 300,
          "y": 480,
          "attributes": [
            {
              "name": "instructions",
              "value": "D"
            },
            {
              "name": "mustFinish",
              "value": "false"
            },
            {
              "name": "offsetX",
              "value": "0"
            },
            {
              "name": "offsetY",
              "value": "0"
            },
            {
              "name": "shouldDie",
              "value": "true"
            }
          ]
        },
        {
          "costume": "rock",
          "x": 300,
          "y": 540
        },
        {
          "costume": "wall",
          "x": 240,
          "y": 600
        },
        {
          "costume": "wall",
          "x": 240,
          "y": 540
        },
        {
          "costume": "wall",
          "x": 240,
          "y": 480
        },
        {
          "costume": "wall",
          "x": 240,
          "y": 420
        },
        {
          "costume": "wall",
          "x": 300,
          "y": 360
        },
        {
          "costume": "wall",
          "x": 360,
          "y": 360
        },
        {
          "costume": "wall",
          "x": 420,
          "y": 360
        },
        {
          "costume": "wall",
          "x": 480,
          "y": 360
        },
        {
          "costume": "wall",
          "x": 300,
          "y": 660
        },
        {
          "costume": "wall",
          "x": 360,
          "y": 660
        },
        {
          "costume": "wall",
          "x": 420,
          "y": 660
        },
        {
          "costume": "wall",
          "x": 480,
          "y": 660
        },
        {
          "costume": "wall",
          "x": 540,
          "y": 660
        },
        {
          "costume": "wall",
          "x": 540,
          "y": 600
        },
        {
          "costume": "wall",
          "x": 540,
          "y": 540
        },
        {
          "costume": "wall",
          "x": 540,
          "y": 480
        },
        {
          "costume": "wall",
          "x": 540,
          "y": 420
        },
        {
          "costume": "wall",
          "x": 540,
          "y": 360
        },
        {
          "costume": "wall",
          "x": 240,
          "y": 660
        },
        {
          "costume": "wall",
          "x": 180,
          "y": 660
        },
        {
          "costume": "wall",
          "x": 120,
          "y": 660
        },
        {
          "costume": "wall",
          "x": 120,
          "y": 600
        },
        {
          "costume": "wall",
          "x": 120,
          "y": 540
        },
        {
          "costume": "wall",
          "x": 120,
          "y": 480
        },
        {
          "costume": "wall",
          "x": 120,
          "y": 420
        },
        {
          "costume": "wall",
          "x": 120,
          "y": 360
        },
        {
          "costume": "wall",
          "x": 180,
          "y": 360
        },
        {
          "costume": "wall",
          "x": 240,
          "y": 360
        },
        {
          "costume": "wall",
          "x": 360,
          "y": 600
        },
        {
          "costume": "wall",
          "x": 360,
          "y": 540
        },
        {
          "costume": "wall",
          "x": 360,
          "y": 480
        },
        {
          "costume": "wall",
          "x": 360,
          "y": 420
        },
        {
          "costume": "rock",
          "x": 180,
          "y": 540
        },
        {
          "costume": "autoPlayer",
          "x": 180,
          "y": 480,
          "attributes": [
            {
              "name": "instructions",
              "value": ""
            },
            {
              "name": "mustFinish",
              "value": "true"
            },
            {
              "name": "shouldDie",
              "value": "false"
            },
            {
              "name": "offsetX",
              "value": "0"
            },
            {
              "name": "offsetY",
              "value": "0"
            }
          ]
        },
        {
          "costume": "rock",
          "x": 420,
          "y": 540
        },
        {
          "costume": "autoPlayer",
          "x": 420,
          "y": 480,
          "attributes": [
            {
              "name": "instructions",
              "value": "R"
            },
            {
              "name": "mustFinish",
              "value": "true"
            },
            {
              "name": "shouldDie",
              "value": "false"
            },
            {
              "name": "offsetX",
              "value": "0"
            },
            {
              "name": "offsetY",
              "value": "0"
            }
          ]
        },
        {
          "costume": "rock",
          "x": 600,
          "y": 540
        },
        {
          "costume": "autoPlayer",
          "x": 600,
          "y": 480,
          "attributes": [
            {
              "name": "instructions",
              "value": "U"
            },
            {
              "name": "mustFinish",
              "value": "true"
            },
            {
              "name": "shouldDie",
              "value": "false"
            },
            {
              "name": "offsetX",
              "value": "0"
            },
            {
              "name": "offsetY",
              "value": "0"
            }
          ]
        },
        {
          "costume": "wall",
          "x": 600,
          "y": 660
        },
        {
          "costume": "wall",
          "x": 660,
          "y": 660
        },
        {
          "costume": "wall",
          "x": 660,
          "y": 600
        },
        {
          "costume": "wall",
          "x": 660,
          "y": 540
        },
        {
          "costume": "wall",
          "x": 660,
          "y": 480
        },
        {
          "costume": "wall",
          "x": 660,
          "y": 420
        },
        {
          "costume": "wall",
          "x": 660,
          "y": 360
        },
        {
          "costume": "wall",
          "x": 600,
          "y": 360
        },
        {
          "costume": "autoPlayer",
          "x": 780,
          "y": 480,
          "attributes": [
            {
              "name": "instructions",
              "value": "LR"
            },
            {
              "name": "mustFinish",
              "value": "true"
            },
            {
              "name": "shouldDie",
              "value": "false"
            },
            {
              "name": "offsetX",
              "value": "0"
            },
            {
              "name": "offsetY",
              "value": "0"
            }
          ]
        },
        {
          "costume": "rock",
          "x": 780,
          "y": 540
        },
        {
          "costume": "wall",
          "x": 840,
          "y": 420
        },
        {
          "costume": "wall",
          "x": 720,
          "y": 420
        },
        {
          "costume": "wall",
          "x": 720,
          "y": 660
        },
        {
          "costume": "wall",
          "x": 780,
          "y": 660
        },
        {
          "costume": "wall",
          "x": 840,
          "y": 660
        },
        {
          "costume": "wall",
          "x": 900,
          "y": 660
        },
        {
          "costume": "wall",
          "x": 900,
          "y": 600
        },
        {
          "costume": "wall",
          "x": 900,
          "y": 540
        },
        {
          "costume": "wall",
          "x": 900,
          "y": 480
        },
        {
          "costume": "wall",
          "x": 900,
          "y": 420
        },
        {
          "costume": "wall",
          "x": 960,
          "y": 660
        },
        {
          "costume": "wall",
          "x": 1020,
          "y": 660
        },
        {
          "costume": "wall",
          "x": 1080,
          "y": 660
        },
        {
          "costume": "wall",
          "x": 1140,
          "y": 660
        },
        {
          "costume": "wall",
          "x": 1200,
          "y": 600
        },
        {
          "costume": "wall",
          "x": 1200,
          "y": 540
        },
        {
          "costume": "wall",
          "x": 1140,
          "y": 600
        },
        {
          "costume": "wall",
          "x": 1140,
          "y": 480
        },
        {
          "costume": "wall",
          "x": 1140,
          "y": 540
        },
        {
          "costume": "wall",
          "x": 1140,
          "y": 420
        },
        {
          "costume": "wall",
          "x": 1080,
          "y": 420
        },
        {
          "costume": "wall",
          "x": 960,
          "y": 420
        },
        {
          "costume": "rock",
          "x": 1020,
          "y": 540
        },
        {
          "costume": "autoPlayer",
          "x": 1020,
          "y": 480,
          "attributes": [
            {
              "name": "instructions",
              "value": "RL"
            },
            {
              "name": "mustFinish",
              "value": "true"
            },
            {
              "name": "shouldDie",
              "value": "false"
            },
            {
              "name": "offsetX",
              "value": "0"
            },
            {
              "name": "offsetY",
              "value": "0"
            }
          ]
        },
        {
          "costume": "rock",
          "x": 1260,
          "y": 540
        },
        {
          "costume": "rock",
          "x": 1260,
          "y": 600
        },
        {
          "costume": "wall",
          "x": 1320,
          "y": 600
        },
        {
          "costume": "wall",
          "x": 1380,
          "y": 600
        },
        {
          "costume": "wall",
          "x": 1320,
          "y": 540
        },
        {
          "costume": "wall",
          "x": 1380,
          "y": 540
        },
        {
          "costume": "wall",
          "x": 1380,
          "y": 480
        },
        {
          "costume": "wall",
          "x": 1380,
          "y": 420
        },
        {
          "costume": "autoPlayer",
          "x": 1260,
          "y": 480,
          "attributes": [
            {
              "name": "instructions",
              "value": "LllllllRLR"
            },
            {
              "name": "mustFinish",
              "value": "true"
            },
            {
              "name": "shouldDie",
              "value": "false"
            },
            {
              "name": "offsetX",
              "value": "0"
            },
            {
              "name": "offsetY",
              "value": "0"
            }
          ]
        },
        {
          "costume": "wall",
          "x": 1260,
          "y": 420
        },
        {
          "costume": "wall",
          "x": 1260,
          "y": 360
        },
        {
          "costume": "wall",
          "x": 1320,
          "y": 360
        },
        {
          "costume": "wall",
          "x": 1380,
          "y": 360
        },
        {
          "costume": "wall",
          "x": 1200,
          "y": 360
        },
        {
          "costume": "wall",
          "x": 1080,
          "y": 360
        },
        {
          "costume": "wall",
          "x": 1020,
          "y": 360
        },
        {
          "costume": "wall",
          "x": 960,
          "y": 360
        },
        {
          "costume": "wall",
          "x": 1140,
          "y": 360
        },
        {
          "costume": "wall",
          "x": 1440,
          "y": 360
        },
        {
          "costume": "wall",
          "x": 1500,
          "y": 360
        },
        {
          "costume": "wall",
          "x": 1500,
          "y": 420
        },
        {
          "costume": "wall",
          "x": 1560,
          "y": 360
        },
        {
          "costume": "wall",
          "x": 1620,
          "y": 360
        },
        {
          "costume": "wall",
          "x": 1620,
          "y": 420
        },
        {
          "costume": "wall",
          "x": 1620,
          "y": 480
        },
        {
          "costume": "wall",
          "x": 1620,
          "y": 540
        },
        {
          "costume": "wall",
          "x": 1440,
          "y": 540
        },
        {
          "costume": "wall",
          "x": 1440,
          "y": 600
        },
        {
          "costume": "wall",
          "x": 1620,
          "y": 600
        },
        {
          "costume": "wall",
          "x": 1560,
          "y": 600
        },
        {
          "costume": "wall",
          "x": 1560,
          "y": 540
        },
        {
          "costume": "rock",
          "x": 1500,
          "y": 600
        },
        {
          "costume": "rock",
          "x": 1500,
          "y": 540
        },
        {
          "costume": "autoPlayer",
          "x": 1500,
          "y": 480,
          "attributes": [
            {
              "name": "instructions",
              "value": "RrrrrrrLRL"
            },
            {
              "name": "mustFinish",
              "value": "true"
            },
            {
              "name": "shouldDie",
              "value": "false"
            },
            {
              "name": "offsetX",
              "value": "0"
            },
            {
              "name": "offsetY",
              "value": "0"
            }
          ]
        }
      ]
    },
    {
      "name": "extra",
      "actors": [
        {
          "costume": "test",
          "x": 180,
          "y": 480,
          "attributes": [
            {
              "name": "expectedCostumeName",
              "value": "autoPlayer"
            },
            {
              "name": "expectedActorName",
              "value": ""
            }
          ]
        },
        {
          "costume": "test",
          "x": 180,
          "y": 540,
          "attributes": [
            {
              "name": "expectedCostumeName",
              "value": "rock"
            },
            {
              "name": "expectedActorName",
              "value": ""
            }
          ]
        },
        {
          "costume": "test",
          "x": 300,
          "y": 420,
          "attributes": [
            {
              "name": "expectedCostumeName",
              "value": "rock"
            },
            {
              "name": "expectedActorName",
              "value": ""
            }
          ]
        },
        {
          "costume": "test",
          "x": 600,
          "y": 540,
          "attributes": [
            {
              "name": "expectedCostumeName",
              "value": "autoPlayer"
            },
            {
              "name": "expectedActorName",
              "value": ""
            }
          ]
        },
        {
          "costume": "test",
          "x": 600,
          "y": 600,
          "attributes": [
            {
              "name": "expectedCostumeName",
              "value": "rock"
            },
            {
              "name": "expectedActorName",
              "value": ""
            }
          ]
        },
        {
          "costume": "test",
          "x": 480,
          "y": 480,
          "attributes": [
            {
              "name": "expectedCostumeName",
              "value": "autoPlayer"
            },
            {
              "name": "expectedActorName",
              "value": ""
            }
          ]
        },
        {
          "costume": "test",
          "x": 420,
          "y": 420,
          "attributes": [
            {
              "name": "expectedCostumeName",
              "value": "rock"
            },
            {
              "name": "expectedActorName",
              "value": ""
            }
          ]
        },
        {
          "costume": "test",
          "x": 840,
          "y": 480,
          "attributes": [
            {
              "name": "expectedCostumeName",
              "value": "rock"
            },
            {
              "name": "expectedActorName",
              "value": ""
            }
          ]
        },
        {
          "costume": "test",
          "x": 780,
          "y": 480,
          "attributes": [
            {
              "name": "expectedCostumeName",
              "value": "autoPlayer"
            },
            {
              "name": "expectedActorName",
              "value": ""
            }
          ]
        },
        {
          "costume": "test",
          "x": 960,
          "y": 480,
          "attributes": [
            {
              "name": "expectedCostumeName",
              "value": "rock"
            },
            {
              "name": "expectedActorName",
              "value": ""
            }
          ]
        },
        {
          "costume": "test",
          "x": 1020,
          "y": 480,
          "attributes": [
            {
              "name": "expectedCostumeName",
              "value": "autoPlayer"
            },
            {
              "name": "expectedActorName",
              "value": ""
            }
          ]
        },
        {
          "costume": "test",
          "x": 1320,
          "y": 420,
          "attributes": [
            {
              "name": "expectedCostumeName",
              "value": "rock"
            },
            {
              "name": "expectedActorName",
              "value": ""
            }
          ]
        },
        {
          "costume": "test",
          "x": 1260,
          "y": 480,
          "attributes": [
            {
              "name": "expectedCostumeName",
              "value": "autoPlayer"
            },
            {
              "name": "expectedActorName",
              "value": ""
            }
          ]
        },
        {
          "costume": "test",
          "x": 1320,
          "y": 480,
          "attributes": [
            {
              "name": "expectedCostumeName",
              "value": "rock"
            },
            {
              "name": "expectedActorName",
              "value": ""
            }
          ]
        },
        {
          "costume": "test",
          "x": 1440,
          "y": 480,
          "attributes": [
            {
              "name": "expectedCostumeName",
              "value": "rock"
            },
            {
              "name": "expectedActorName",
              "value": ""
            }
          ]
        },
        {
          "costume": "test",
          "x": 1440,
          "y": 420,
          "attributes": [
            {
              "name": "expectedCostumeName",
              "value": "rock"
            },
            {
              "name": "expectedActorName",
              "value": ""
            }
          ]
        }
      ]
    }
  ]
}